%YAML 1.1
%TAG !u! tag:unity3d.com,2011:
--- !u!1 &823069265059775055
GameObject:
  m_ObjectHideFlags: 0
  m_CorrespondingSourceObject: {fileID: 0}
  m_PrefabInstance: {fileID: 0}
  m_PrefabAsset: {fileID: 0}
  serializedVersion: 6
  m_Component:
  - component: {fileID: 2427179793122189449}
  - component: {fileID: 1550007359333445630}
  - component: {fileID: 9052452979780188304}
  m_Layer: 0
  m_Name: Layer1
  m_TagString: Untagged
  m_Icon: {fileID: 0}
  m_NavMeshLayer: 0
  m_StaticEditorFlags: 0
  m_IsActive: 1
--- !u!4 &2427179793122189449
Transform:
  m_ObjectHideFlags: 0
  m_CorrespondingSourceObject: {fileID: 0}
  m_PrefabInstance: {fileID: 0}
  m_PrefabAsset: {fileID: 0}
  m_GameObject: {fileID: 823069265059775055}
  m_LocalRotation: {x: -0, y: -0, z: -0, w: 1}
  m_LocalPosition: {x: 0, y: 0, z: 0}
  m_LocalScale: {x: 1, y: 1, z: 1}
  m_ConstrainProportionsScale: 0
  m_Children: []
  m_Father: {fileID: 6666972213064477306}
  m_RootOrder: 0
  m_LocalEulerAnglesHint: {x: 0, y: 0, z: 0}
--- !u!1839735485 &1550007359333445630
Tilemap:
  m_ObjectHideFlags: 0
  m_CorrespondingSourceObject: {fileID: 0}
  m_PrefabInstance: {fileID: 0}
  m_PrefabAsset: {fileID: 0}
  m_GameObject: {fileID: 823069265059775055}
  m_Enabled: 1
  m_Tiles:
  - first: {x: -7, y: -19, z: 0}
    second:
      serializedVersion: 2
      m_TileIndex: 244
      m_TileSpriteIndex: 216
      m_TileMatrixIndex: 0
      m_TileColorIndex: 0
      m_TileObjectToInstantiateIndex: 65535
      dummyAlignment: 0
      m_AllTileFlags: 1073741825
  - first: {x: -6, y: -19, z: 0}
    second:
      serializedVersion: 2
      m_TileIndex: 253
      m_TileSpriteIndex: 226
      m_TileMatrixIndex: 0
      m_TileColorIndex: 0
      m_TileObjectToInstantiateIndex: 65535
      dummyAlignment: 0
      m_AllTileFlags: 1073741825
  - first: {x: -7, y: -18, z: 0}
    second:
      serializedVersion: 2
      m_TileIndex: 243
      m_TileSpriteIndex: 215
      m_TileMatrixIndex: 0
      m_TileColorIndex: 0
      m_TileObjectToInstantiateIndex: 65535
      dummyAlignment: 0
      m_AllTileFlags: 1073741825
  - first: {x: -6, y: -18, z: 0}
    second:
      serializedVersion: 2
      m_TileIndex: 254
      m_TileSpriteIndex: 227
      m_TileMatrixIndex: 0
      m_TileColorIndex: 0
      m_TileObjectToInstantiateIndex: 65535
      dummyAlignment: 0
      m_AllTileFlags: 1073741825
  - first: {x: 3, y: -18, z: 0}
    second:
      serializedVersion: 2
      m_TileIndex: 239
      m_TileSpriteIndex: 239
      m_TileMatrixIndex: 0
      m_TileColorIndex: 0
      m_TileObjectToInstantiateIndex: 65535
      dummyAlignment: 0
      m_AllTileFlags: 1073741825
  - first: {x: 6, y: -18, z: 0}
    second:
      serializedVersion: 2
      m_TileIndex: 240
      m_TileSpriteIndex: 240
      m_TileMatrixIndex: 0
      m_TileColorIndex: 0
      m_TileObjectToInstantiateIndex: 65535
      dummyAlignment: 0
      m_AllTileFlags: 1073741825
  - first: {x: -7, y: -15, z: 0}
    second:
      serializedVersion: 2
      m_TileIndex: 226
      m_TileSpriteIndex: 244
      m_TileMatrixIndex: 0
      m_TileColorIndex: 0
      m_TileObjectToInstantiateIndex: 65535
      dummyAlignment: 0
      m_AllTileFlags: 1073741825
  - first: {x: -6, y: -15, z: 0}
    second:
      serializedVersion: 2
      m_TileIndex: 222
      m_TileSpriteIndex: 245
      m_TileMatrixIndex: 0
      m_TileColorIndex: 0
      m_TileObjectToInstantiateIndex: 65535
      dummyAlignment: 0
      m_AllTileFlags: 1073741825
  - first: {x: -5, y: -15, z: 0}
    second:
      serializedVersion: 2
      m_TileIndex: 221
      m_TileSpriteIndex: 255
      m_TileMatrixIndex: 0
      m_TileColorIndex: 0
      m_TileObjectToInstantiateIndex: 65535
      dummyAlignment: 0
      m_AllTileFlags: 1073741825
  - first: {x: -4, y: -15, z: 0}
    second:
      serializedVersion: 2
      m_TileIndex: 227
      m_TileSpriteIndex: 268
      m_TileMatrixIndex: 0
      m_TileColorIndex: 0
      m_TileObjectToInstantiateIndex: 65535
      dummyAlignment: 0
      m_AllTileFlags: 1073741825
  - first: {x: -1, y: -14, z: 0}
    second:
      serializedVersion: 2
      m_TileIndex: 269
      m_TileSpriteIndex: 252
      m_TileMatrixIndex: 0
      m_TileColorIndex: 0
      m_TileObjectToInstantiateIndex: 65535
      dummyAlignment: 0
      m_AllTileFlags: 1073741825
  - first: {x: 0, y: -14, z: 0}
    second:
      serializedVersion: 2
      m_TileIndex: 251
      m_TileSpriteIndex: 269
      m_TileMatrixIndex: 0
      m_TileColorIndex: 0
      m_TileObjectToInstantiateIndex: 65535
      dummyAlignment: 0
      m_AllTileFlags: 1073741825
  - first: {x: 1, y: -14, z: 0}
    second:
      serializedVersion: 2
      m_TileIndex: 255
      m_TileSpriteIndex: 254
      m_TileMatrixIndex: 0
      m_TileColorIndex: 0
      m_TileObjectToInstantiateIndex: 65535
      dummyAlignment: 0
      m_AllTileFlags: 1073741825
  - first: {x: -1, y: -13, z: 0}
    second:
      serializedVersion: 2
      m_TileIndex: 241
      m_TileSpriteIndex: 251
      m_TileMatrixIndex: 0
      m_TileColorIndex: 0
      m_TileObjectToInstantiateIndex: 65535
      dummyAlignment: 0
      m_AllTileFlags: 1073741825
  - first: {x: 0, y: -13, z: 0}
    second:
      serializedVersion: 2
      m_TileIndex: 267
      m_TileSpriteIndex: 253
      m_TileMatrixIndex: 0
      m_TileColorIndex: 0
      m_TileObjectToInstantiateIndex: 65535
      dummyAlignment: 0
      m_AllTileFlags: 1073741825
  - first: {x: 1, y: -13, z: 0}
    second:
      serializedVersion: 2
      m_TileIndex: 252
      m_TileSpriteIndex: 267
      m_TileMatrixIndex: 0
      m_TileColorIndex: 0
      m_TileObjectToInstantiateIndex: 65535
      dummyAlignment: 0
      m_AllTileFlags: 1073741825
  - first: {x: -6, y: -12, z: 0}
    second:
      serializedVersion: 2
      m_TileIndex: 237
      m_TileSpriteIndex: 238
      m_TileMatrixIndex: 0
      m_TileColorIndex: 0
      m_TileObjectToInstantiateIndex: 65535
      dummyAlignment: 0
      m_AllTileFlags: 1073741825
  - first: {x: -5, y: -12, z: 0}
    second:
      serializedVersion: 2
      m_TileIndex: 224
      m_TileSpriteIndex: 225
      m_TileMatrixIndex: 0
      m_TileColorIndex: 0
      m_TileObjectToInstantiateIndex: 65535
      dummyAlignment: 0
      m_AllTileFlags: 1073741825
  - first: {x: -4, y: -12, z: 0}
    second:
      serializedVersion: 2
      m_TileIndex: 236
      m_TileSpriteIndex: 237
      m_TileMatrixIndex: 0
      m_TileColorIndex: 0
      m_TileObjectToInstantiateIndex: 65535
      dummyAlignment: 0
      m_AllTileFlags: 1073741825
  - first: {x: -1, y: -12, z: 0}
    second:
      serializedVersion: 2
      m_TileIndex: 268
      m_TileSpriteIndex: 241
      m_TileMatrixIndex: 0
      m_TileColorIndex: 0
      m_TileObjectToInstantiateIndex: 65535
      dummyAlignment: 0
      m_AllTileFlags: 1073741825
  - first: {x: 0, y: -12, z: 0}
    second:
      serializedVersion: 2
      m_TileIndex: 242
      m_TileSpriteIndex: 242
      m_TileMatrixIndex: 0
      m_TileColorIndex: 0
      m_TileObjectToInstantiateIndex: 65535
      dummyAlignment: 0
      m_AllTileFlags: 1073741825
  - first: {x: 1, y: -12, z: 0}
    second:
      serializedVersion: 2
      m_TileIndex: 245
      m_TileSpriteIndex: 243
      m_TileMatrixIndex: 0
      m_TileColorIndex: 0
      m_TileObjectToInstantiateIndex: 65535
      dummyAlignment: 0
      m_AllTileFlags: 1073741825
  - first: {x: -6, y: -11, z: 0}
    second:
      serializedVersion: 2
      m_TileIndex: 228
      m_TileSpriteIndex: 205
      m_TileMatrixIndex: 0
      m_TileColorIndex: 0
      m_TileObjectToInstantiateIndex: 65535
      dummyAlignment: 0
      m_AllTileFlags: 1073741825
  - first: {x: -4, y: -11, z: 0}
    second:
      serializedVersion: 2
      m_TileIndex: 223
      m_TileSpriteIndex: 214
      m_TileMatrixIndex: 0
      m_TileColorIndex: 0
      m_TileObjectToInstantiateIndex: 65535
      dummyAlignment: 0
      m_AllTileFlags: 1073741825
  - first: {x: 8, y: -11, z: 0}
    second:
      serializedVersion: 2
      m_TileIndex: 151
      m_TileSpriteIndex: 266
      m_TileMatrixIndex: 0
      m_TileColorIndex: 0
      m_TileObjectToInstantiateIndex: 65535
      dummyAlignment: 0
      m_AllTileFlags: 1073741825
  - first: {x: -6, y: -10, z: 0}
    second:
      serializedVersion: 2
      m_TileIndex: 234
      m_TileSpriteIndex: 234
      m_TileMatrixIndex: 0
      m_TileColorIndex: 0
      m_TileObjectToInstantiateIndex: 65535
      dummyAlignment: 0
      m_AllTileFlags: 1073741825
  - first: {x: -5, y: -10, z: 0}
    second:
      serializedVersion: 2
      m_TileIndex: 225
      m_TileSpriteIndex: 235
      m_TileMatrixIndex: 0
      m_TileColorIndex: 0
      m_TileObjectToInstantiateIndex: 65535
      dummyAlignment: 0
      m_AllTileFlags: 1073741825
  - first: {x: -4, y: -10, z: 0}
    second:
      serializedVersion: 2
      m_TileIndex: 235
      m_TileSpriteIndex: 236
      m_TileMatrixIndex: 0
      m_TileColorIndex: 0
      m_TileObjectToInstantiateIndex: 65535
      dummyAlignment: 0
      m_AllTileFlags: 1073741825
  - first: {x: 11, y: -10, z: 0}
    second:
      serializedVersion: 2
      m_TileIndex: 140
      m_TileSpriteIndex: 202
      m_TileMatrixIndex: 0
      m_TileColorIndex: 0
      m_TileObjectToInstantiateIndex: 65535
      dummyAlignment: 0
      m_AllTileFlags: 1073741825
  - first: {x: 11, y: -9, z: 0}
    second:
      serializedVersion: 2
      m_TileIndex: 122
      m_TileSpriteIndex: 201
      m_TileMatrixIndex: 0
      m_TileColorIndex: 0
      m_TileObjectToInstantiateIndex: 65535
      dummyAlignment: 0
      m_AllTileFlags: 1073741825
  - first: {x: -6, y: -8, z: 0}
    second:
      serializedVersion: 2
      m_TileIndex: 229
      m_TileSpriteIndex: 206
      m_TileMatrixIndex: 0
      m_TileColorIndex: 0
      m_TileObjectToInstantiateIndex: 65535
      dummyAlignment: 0
      m_AllTileFlags: 1073741825
  - first: {x: -5, y: -8, z: 0}
    second:
      serializedVersion: 2
      m_TileIndex: 231
      m_TileSpriteIndex: 213
      m_TileMatrixIndex: 0
      m_TileColorIndex: 0
      m_TileObjectToInstantiateIndex: 65535
      dummyAlignment: 0
      m_AllTileFlags: 1073741825
  - first: {x: -4, y: -8, z: 0}
    second:
      serializedVersion: 2
      m_TileIndex: 232
      m_TileSpriteIndex: 224
      m_TileMatrixIndex: 0
      m_TileColorIndex: 0
      m_TileObjectToInstantiateIndex: 65535
      dummyAlignment: 0
      m_AllTileFlags: 1073741825
  - first: {x: -6, y: -7, z: 0}
    second:
      serializedVersion: 2
      m_TileIndex: 230
      m_TileSpriteIndex: 204
      m_TileMatrixIndex: 0
      m_TileColorIndex: 0
      m_TileObjectToInstantiateIndex: 65535
      dummyAlignment: 0
      m_AllTileFlags: 1073741825
  - first: {x: -5, y: -7, z: 0}
    second:
      serializedVersion: 2
      m_TileIndex: 238
      m_TileSpriteIndex: 203
      m_TileMatrixIndex: 0
      m_TileColorIndex: 0
      m_TileObjectToInstantiateIndex: 65535
      dummyAlignment: 0
      m_AllTileFlags: 1073741825
  - first: {x: -4, y: -7, z: 0}
    second:
      serializedVersion: 2
      m_TileIndex: 233
      m_TileSpriteIndex: 207
      m_TileMatrixIndex: 0
      m_TileColorIndex: 0
      m_TileObjectToInstantiateIndex: 65535
      dummyAlignment: 0
      m_AllTileFlags: 1073741825
  - first: {x: 5, y: -7, z: 0}
    second:
      serializedVersion: 2
      m_TileIndex: 91
      m_TileSpriteIndex: 200
      m_TileMatrixIndex: 0
      m_TileColorIndex: 0
      m_TileObjectToInstantiateIndex: 65535
      dummyAlignment: 0
      m_AllTileFlags: 1073741825
  - first: {x: 8, y: -7, z: 0}
    second:
      serializedVersion: 2
      m_TileIndex: 92
      m_TileSpriteIndex: 199
      m_TileMatrixIndex: 0
      m_TileColorIndex: 0
      m_TileObjectToInstantiateIndex: 65535
      dummyAlignment: 0
      m_AllTileFlags: 1073741825
  - first: {x: -6, y: -6, z: 0}
    second:
      serializedVersion: 2
      m_TileIndex: 248
      m_TileSpriteIndex: 210
      m_TileMatrixIndex: 0
      m_TileColorIndex: 0
      m_TileObjectToInstantiateIndex: 65535
      dummyAlignment: 0
      m_AllTileFlags: 1073741825
  - first: {x: -5, y: -6, z: 0}
    second:
      serializedVersion: 2
      m_TileIndex: 246
      m_TileSpriteIndex: 208
      m_TileMatrixIndex: 0
      m_TileColorIndex: 0
      m_TileObjectToInstantiateIndex: 65535
      dummyAlignment: 0
      m_AllTileFlags: 1073741825
  - first: {x: -4, y: -6, z: 0}
    second:
      serializedVersion: 2
      m_TileIndex: 247
      m_TileSpriteIndex: 209
      m_TileMatrixIndex: 0
      m_TileColorIndex: 0
      m_TileObjectToInstantiateIndex: 65535
      dummyAlignment: 0
      m_AllTileFlags: 1073741825
  - first: {x: 4, y: -6, z: 0}
    second:
      serializedVersion: 2
      m_TileIndex: 85
      m_TileSpriteIndex: 198
      m_TileMatrixIndex: 0
      m_TileColorIndex: 0
      m_TileObjectToInstantiateIndex: 65535
      dummyAlignment: 0
      m_AllTileFlags: 1073741825
  - first: {x: 5, y: -6, z: 0}
    second:
      serializedVersion: 2
      m_TileIndex: 86
      m_TileSpriteIndex: 197
      m_TileMatrixIndex: 0
      m_TileColorIndex: 0
      m_TileObjectToInstantiateIndex: 65535
      dummyAlignment: 0
      m_AllTileFlags: 1073741825
  - first: {x: 6, y: -6, z: 0}
    second:
      serializedVersion: 2
      m_TileIndex: 87
      m_TileSpriteIndex: 196
      m_TileMatrixIndex: 0
      m_TileColorIndex: 0
      m_TileObjectToInstantiateIndex: 65535
      dummyAlignment: 0
      m_AllTileFlags: 1073741825
  - first: {x: 7, y: -6, z: 0}
    second:
      serializedVersion: 2
      m_TileIndex: 88
      m_TileSpriteIndex: 195
      m_TileMatrixIndex: 0
      m_TileColorIndex: 0
      m_TileObjectToInstantiateIndex: 65535
      dummyAlignment: 0
      m_AllTileFlags: 1073741825
  - first: {x: 8, y: -6, z: 0}
    second:
      serializedVersion: 2
      m_TileIndex: 89
      m_TileSpriteIndex: 194
      m_TileMatrixIndex: 0
      m_TileColorIndex: 0
      m_TileObjectToInstantiateIndex: 65535
      dummyAlignment: 0
      m_AllTileFlags: 1073741825
  - first: {x: 9, y: -6, z: 0}
    second:
      serializedVersion: 2
      m_TileIndex: 90
      m_TileSpriteIndex: 193
      m_TileMatrixIndex: 0
      m_TileColorIndex: 0
      m_TileObjectToInstantiateIndex: 65535
      dummyAlignment: 0
      m_AllTileFlags: 1073741825
  - first: {x: 4, y: -5, z: 0}
    second:
      serializedVersion: 2
      m_TileIndex: 79
      m_TileSpriteIndex: 192
      m_TileMatrixIndex: 0
      m_TileColorIndex: 0
      m_TileObjectToInstantiateIndex: 65535
      dummyAlignment: 0
      m_AllTileFlags: 1073741825
  - first: {x: 5, y: -5, z: 0}
    second:
      serializedVersion: 2
      m_TileIndex: 80
      m_TileSpriteIndex: 191
      m_TileMatrixIndex: 0
      m_TileColorIndex: 0
      m_TileObjectToInstantiateIndex: 65535
      dummyAlignment: 0
      m_AllTileFlags: 1073741825
  - first: {x: 6, y: -5, z: 0}
    second:
      serializedVersion: 2
      m_TileIndex: 81
      m_TileSpriteIndex: 190
      m_TileMatrixIndex: 0
      m_TileColorIndex: 0
      m_TileObjectToInstantiateIndex: 65535
      dummyAlignment: 0
      m_AllTileFlags: 1073741825
  - first: {x: 7, y: -5, z: 0}
    second:
      serializedVersion: 2
      m_TileIndex: 82
      m_TileSpriteIndex: 189
      m_TileMatrixIndex: 0
      m_TileColorIndex: 0
      m_TileObjectToInstantiateIndex: 65535
      dummyAlignment: 0
      m_AllTileFlags: 1073741825
  - first: {x: 8, y: -5, z: 0}
    second:
      serializedVersion: 2
      m_TileIndex: 83
      m_TileSpriteIndex: 188
      m_TileMatrixIndex: 0
      m_TileColorIndex: 0
      m_TileObjectToInstantiateIndex: 65535
      dummyAlignment: 0
      m_AllTileFlags: 1073741825
  - first: {x: 9, y: -5, z: 0}
    second:
      serializedVersion: 2
      m_TileIndex: 84
      m_TileSpriteIndex: 187
      m_TileMatrixIndex: 0
      m_TileColorIndex: 0
      m_TileObjectToInstantiateIndex: 65535
      dummyAlignment: 0
      m_AllTileFlags: 1073741825
  - first: {x: 1, y: -3, z: 0}
    second:
      serializedVersion: 2
      m_TileIndex: 60
      m_TileSpriteIndex: 181
      m_TileMatrixIndex: 0
      m_TileColorIndex: 0
      m_TileObjectToInstantiateIndex: 65535
      dummyAlignment: 0
      m_AllTileFlags: 1073741825
  - first: {x: 5, y: -3, z: 0}
    second:
      serializedVersion: 2
      m_TileIndex: 64
      m_TileSpriteIndex: 180
      m_TileMatrixIndex: 0
      m_TileColorIndex: 0
      m_TileObjectToInstantiateIndex: 65535
      dummyAlignment: 0
      m_AllTileFlags: 1073741825
  - first: {x: 6, y: -3, z: 0}
    second:
      serializedVersion: 2
      m_TileIndex: 65
      m_TileSpriteIndex: 179
      m_TileMatrixIndex: 0
      m_TileColorIndex: 0
      m_TileObjectToInstantiateIndex: 65535
      dummyAlignment: 0
      m_AllTileFlags: 1073741825
  - first: {x: 7, y: -3, z: 0}
    second:
      serializedVersion: 2
      m_TileIndex: 66
      m_TileSpriteIndex: 178
      m_TileMatrixIndex: 0
      m_TileColorIndex: 0
      m_TileObjectToInstantiateIndex: 65535
      dummyAlignment: 0
      m_AllTileFlags: 1073741825
  - first: {x: 8, y: -3, z: 0}
    second:
      serializedVersion: 2
      m_TileIndex: 67
      m_TileSpriteIndex: 177
      m_TileMatrixIndex: 0
      m_TileColorIndex: 0
      m_TileObjectToInstantiateIndex: 65535
      dummyAlignment: 0
      m_AllTileFlags: 1073741825
  - first: {x: 9, y: -3, z: 0}
    second:
      serializedVersion: 2
      m_TileIndex: 68
      m_TileSpriteIndex: 176
      m_TileMatrixIndex: 0
      m_TileColorIndex: 0
      m_TileObjectToInstantiateIndex: 65535
      dummyAlignment: 0
      m_AllTileFlags: 1073741825
  - first: {x: -6, y: -2, z: 0}
    second:
      serializedVersion: 2
      m_TileIndex: 77
      m_TileSpriteIndex: 175
      m_TileMatrixIndex: 0
      m_TileColorIndex: 0
      m_TileObjectToInstantiateIndex: 65535
      dummyAlignment: 0
      m_AllTileFlags: 1073741825
  - first: {x: -5, y: -2, z: 0}
    second:
      serializedVersion: 2
      m_TileIndex: 72
      m_TileSpriteIndex: 174
      m_TileMatrixIndex: 0
      m_TileColorIndex: 0
      m_TileObjectToInstantiateIndex: 65535
      dummyAlignment: 0
      m_AllTileFlags: 1073741825
  - first: {x: -4, y: -2, z: 0}
    second:
      serializedVersion: 2
      m_TileIndex: 74
      m_TileSpriteIndex: 264
      m_TileMatrixIndex: 0
      m_TileColorIndex: 0
      m_TileObjectToInstantiateIndex: 65535
      dummyAlignment: 0
      m_AllTileFlags: 1073741825
  - first: {x: -1, y: -2, z: 0}
    second:
      serializedVersion: 2
      m_TileIndex: 49
      m_TileSpriteIndex: 173
      m_TileMatrixIndex: 0
      m_TileColorIndex: 0
      m_TileObjectToInstantiateIndex: 65535
      dummyAlignment: 0
      m_AllTileFlags: 1073741825
  - first: {x: 0, y: -2, z: 0}
    second:
      serializedVersion: 2
      m_TileIndex: 50
      m_TileSpriteIndex: 172
      m_TileMatrixIndex: 0
      m_TileColorIndex: 0
      m_TileObjectToInstantiateIndex: 65535
      dummyAlignment: 0
      m_AllTileFlags: 1073741825
  - first: {x: 1, y: -2, z: 0}
    second:
      serializedVersion: 2
      m_TileIndex: 51
      m_TileSpriteIndex: 171
      m_TileMatrixIndex: 0
      m_TileColorIndex: 0
      m_TileObjectToInstantiateIndex: 65535
      dummyAlignment: 0
      m_AllTileFlags: 1073741825
  - first: {x: 2, y: -2, z: 0}
    second:
      serializedVersion: 2
      m_TileIndex: 52
      m_TileSpriteIndex: 170
      m_TileMatrixIndex: 0
      m_TileColorIndex: 0
      m_TileObjectToInstantiateIndex: 65535
      dummyAlignment: 0
      m_AllTileFlags: 1073741825
  - first: {x: 4, y: -2, z: 0}
    second:
      serializedVersion: 2
      m_TileIndex: 78
      m_TileSpriteIndex: 169
      m_TileMatrixIndex: 0
      m_TileColorIndex: 0
      m_TileObjectToInstantiateIndex: 65535
      dummyAlignment: 0
      m_AllTileFlags: 1073741825
  - first: {x: 5, y: -2, z: 0}
    second:
      serializedVersion: 2
      m_TileIndex: 62
      m_TileSpriteIndex: 168
      m_TileMatrixIndex: 0
      m_TileColorIndex: 0
      m_TileObjectToInstantiateIndex: 65535
      dummyAlignment: 0
      m_AllTileFlags: 1073741825
  - first: {x: 6, y: -2, z: 0}
    second:
      serializedVersion: 2
      m_TileIndex: 61
      m_TileSpriteIndex: 167
      m_TileMatrixIndex: 0
      m_TileColorIndex: 0
      m_TileObjectToInstantiateIndex: 65535
      dummyAlignment: 0
      m_AllTileFlags: 1073741825
  - first: {x: 7, y: -2, z: 0}
    second:
      serializedVersion: 2
      m_TileIndex: 58
      m_TileSpriteIndex: 166
      m_TileMatrixIndex: 0
      m_TileColorIndex: 0
      m_TileObjectToInstantiateIndex: 65535
      dummyAlignment: 0
      m_AllTileFlags: 1073741825
  - first: {x: 8, y: -2, z: 0}
    second:
      serializedVersion: 2
      m_TileIndex: 102
      m_TileSpriteIndex: 165
      m_TileMatrixIndex: 0
      m_TileColorIndex: 0
      m_TileObjectToInstantiateIndex: 65535
      dummyAlignment: 0
      m_AllTileFlags: 1073741825
  - first: {x: 9, y: -2, z: 0}
    second:
      serializedVersion: 2
      m_TileIndex: 63
      m_TileSpriteIndex: 164
      m_TileMatrixIndex: 0
      m_TileColorIndex: 0
      m_TileObjectToInstantiateIndex: 65535
      dummyAlignment: 0
      m_AllTileFlags: 1073741825
  - first: {x: -6, y: -1, z: 0}
    second:
      serializedVersion: 2
      m_TileIndex: 71
      m_TileSpriteIndex: 163
      m_TileMatrixIndex: 0
      m_TileColorIndex: 0
      m_TileObjectToInstantiateIndex: 65535
      dummyAlignment: 0
      m_AllTileFlags: 1073741825
  - first: {x: -5, y: -1, z: 0}
    second:
      serializedVersion: 2
      m_TileIndex: 69
      m_TileSpriteIndex: 261
      m_TileMatrixIndex: 0
      m_TileColorIndex: 0
      m_TileObjectToInstantiateIndex: 65535
      dummyAlignment: 0
      m_AllTileFlags: 1073741825
  - first: {x: -4, y: -1, z: 0}
    second:
      serializedVersion: 2
      m_TileIndex: 70
      m_TileSpriteIndex: 263
      m_TileMatrixIndex: 0
      m_TileColorIndex: 0
      m_TileObjectToInstantiateIndex: 65535
      dummyAlignment: 0
      m_AllTileFlags: 1073741825
  - first: {x: -1, y: -1, z: 0}
    second:
      serializedVersion: 2
      m_TileIndex: 38
      m_TileSpriteIndex: 162
      m_TileMatrixIndex: 0
      m_TileColorIndex: 0
      m_TileObjectToInstantiateIndex: 65535
      dummyAlignment: 0
      m_AllTileFlags: 1073741825
  - first: {x: 0, y: -1, z: 0}
    second:
      serializedVersion: 2
      m_TileIndex: 39
      m_TileSpriteIndex: 161
      m_TileMatrixIndex: 0
      m_TileColorIndex: 0
      m_TileObjectToInstantiateIndex: 65535
      dummyAlignment: 0
      m_AllTileFlags: 1073741825
  - first: {x: 1, y: -1, z: 0}
    second:
      serializedVersion: 2
      m_TileIndex: 40
      m_TileSpriteIndex: 160
      m_TileMatrixIndex: 0
      m_TileColorIndex: 0
      m_TileObjectToInstantiateIndex: 65535
      dummyAlignment: 0
      m_AllTileFlags: 1073741825
  - first: {x: 2, y: -1, z: 0}
    second:
      serializedVersion: 2
      m_TileIndex: 41
      m_TileSpriteIndex: 159
      m_TileMatrixIndex: 0
      m_TileColorIndex: 0
      m_TileObjectToInstantiateIndex: 65535
      dummyAlignment: 0
      m_AllTileFlags: 1073741825
  - first: {x: -6, y: 0, z: 0}
    second:
      serializedVersion: 2
      m_TileIndex: 76
      m_TileSpriteIndex: 158
      m_TileMatrixIndex: 0
      m_TileColorIndex: 0
      m_TileObjectToInstantiateIndex: 65535
      dummyAlignment: 0
      m_AllTileFlags: 1073741825
  - first: {x: -5, y: 0, z: 0}
    second:
      serializedVersion: 2
      m_TileIndex: 73
      m_TileSpriteIndex: 262
      m_TileMatrixIndex: 0
      m_TileColorIndex: 0
      m_TileObjectToInstantiateIndex: 65535
      dummyAlignment: 0
      m_AllTileFlags: 1073741825
  - first: {x: -4, y: 0, z: 0}
    second:
      serializedVersion: 2
      m_TileIndex: 75
      m_TileSpriteIndex: 265
      m_TileMatrixIndex: 0
      m_TileColorIndex: 0
      m_TileObjectToInstantiateIndex: 65535
      dummyAlignment: 0
      m_AllTileFlags: 1073741825
  - first: {x: 10, y: 0, z: 0}
    second:
      serializedVersion: 2
      m_TileIndex: 37
      m_TileSpriteIndex: 230
      m_TileMatrixIndex: 0
      m_TileColorIndex: 0
      m_TileObjectToInstantiateIndex: 65535
      dummyAlignment: 0
      m_AllTileFlags: 1073741825
  - first: {x: 13, y: 1, z: 0}
    second:
      serializedVersion: 2
      m_TileIndex: 28
      m_TileSpriteIndex: 221
      m_TileMatrixIndex: 0
      m_TileColorIndex: 0
      m_TileObjectToInstantiateIndex: 65535
      dummyAlignment: 0
      m_AllTileFlags: 1073741825
  - first: {x: -6, y: 2, z: 0}
    second:
      serializedVersion: 2
      m_TileIndex: 99
      m_TileSpriteIndex: 250
      m_TileMatrixIndex: 0
      m_TileColorIndex: 0
      m_TileObjectToInstantiateIndex: 65535
      dummyAlignment: 0
      m_AllTileFlags: 1073741825
  - first: {x: -5, y: 2, z: 0}
    second:
      serializedVersion: 2
      m_TileIndex: 101
      m_TileSpriteIndex: 259
      m_TileMatrixIndex: 0
      m_TileColorIndex: 0
      m_TileObjectToInstantiateIndex: 65535
      dummyAlignment: 0
      m_AllTileFlags: 1073741825
  - first: {x: -4, y: 2, z: 0}
    second:
      serializedVersion: 2
      m_TileIndex: 98
      m_TileSpriteIndex: 258
      m_TileMatrixIndex: 0
      m_TileColorIndex: 0
      m_TileObjectToInstantiateIndex: 65535
      dummyAlignment: 0
      m_AllTileFlags: 1073741825
  - first: {x: -2, y: 2, z: 0}
    second:
      serializedVersion: 2
      m_TileIndex: 4
      m_TileSpriteIndex: 157
      m_TileMatrixIndex: 0
      m_TileColorIndex: 0
      m_TileObjectToInstantiateIndex: 65535
      dummyAlignment: 0
      m_AllTileFlags: 1073741825
  - first: {x: -1, y: 2, z: 0}
    second:
      serializedVersion: 2
      m_TileIndex: 7
      m_TileSpriteIndex: 156
      m_TileMatrixIndex: 0
      m_TileColorIndex: 0
      m_TileObjectToInstantiateIndex: 65535
      dummyAlignment: 0
      m_AllTileFlags: 1073741825
  - first: {x: 0, y: 2, z: 0}
    second:
      serializedVersion: 2
      m_TileIndex: 5
      m_TileSpriteIndex: 155
      m_TileMatrixIndex: 0
      m_TileColorIndex: 0
      m_TileObjectToInstantiateIndex: 65535
      dummyAlignment: 0
      m_AllTileFlags: 1073741825
  - first: {x: 2, y: 2, z: 0}
    second:
      serializedVersion: 2
      m_TileIndex: 54
      m_TileSpriteIndex: 154
      m_TileMatrixIndex: 0
      m_TileColorIndex: 0
      m_TileObjectToInstantiateIndex: 65535
      dummyAlignment: 0
      m_AllTileFlags: 1073741825
  - first: {x: 3, y: 2, z: 0}
    second:
      serializedVersion: 2
      m_TileIndex: 53
      m_TileSpriteIndex: 153
      m_TileMatrixIndex: 0
      m_TileColorIndex: 0
      m_TileObjectToInstantiateIndex: 65535
      dummyAlignment: 0
      m_AllTileFlags: 1073741825
  - first: {x: 4, y: 2, z: 0}
    second:
      serializedVersion: 2
      m_TileIndex: 47
      m_TileSpriteIndex: 152
      m_TileMatrixIndex: 0
      m_TileColorIndex: 0
      m_TileObjectToInstantiateIndex: 65535
      dummyAlignment: 0
      m_AllTileFlags: 1073741825
  - first: {x: 5, y: 2, z: 0}
    second:
      serializedVersion: 2
      m_TileIndex: 45
      m_TileSpriteIndex: 151
      m_TileMatrixIndex: 0
      m_TileColorIndex: 0
      m_TileObjectToInstantiateIndex: 65535
      dummyAlignment: 0
      m_AllTileFlags: 1073741825
  - first: {x: 8, y: 2, z: 0}
    second:
      serializedVersion: 2
      m_TileIndex: 262
      m_TileSpriteIndex: 229
      m_TileMatrixIndex: 0
      m_TileColorIndex: 0
      m_TileObjectToInstantiateIndex: 65535
      dummyAlignment: 0
      m_AllTileFlags: 1073741825
  - first: {x: 9, y: 2, z: 0}
    second:
      serializedVersion: 2
      m_TileIndex: 261
      m_TileSpriteIndex: 228
      m_TileMatrixIndex: 0
      m_TileColorIndex: 0
      m_TileObjectToInstantiateIndex: 65535
      dummyAlignment: 0
      m_AllTileFlags: 1073741825
  - first: {x: 11, y: 2, z: 0}
    second:
      serializedVersion: 2
      m_TileIndex: 258
      m_TileSpriteIndex: 219
      m_TileMatrixIndex: 0
      m_TileColorIndex: 0
      m_TileObjectToInstantiateIndex: 65535
      dummyAlignment: 0
      m_AllTileFlags: 1073741825
  - first: {x: 12, y: 2, z: 0}
    second:
      serializedVersion: 2
      m_TileIndex: 257
      m_TileSpriteIndex: 218
      m_TileMatrixIndex: 0
      m_TileColorIndex: 0
      m_TileObjectToInstantiateIndex: 65535
      dummyAlignment: 0
      m_AllTileFlags: 1073741825
  - first: {x: 13, y: 2, z: 0}
    second:
      serializedVersion: 2
      m_TileIndex: 12
      m_TileSpriteIndex: 220
      m_TileMatrixIndex: 0
      m_TileColorIndex: 0
      m_TileObjectToInstantiateIndex: 65535
      dummyAlignment: 0
      m_AllTileFlags: 1073741825
  - first: {x: 14, y: 2, z: 0}
    second:
      serializedVersion: 2
      m_TileIndex: 249
      m_TileSpriteIndex: 211
      m_TileMatrixIndex: 0
      m_TileColorIndex: 0
      m_TileObjectToInstantiateIndex: 65535
      dummyAlignment: 0
      m_AllTileFlags: 1073741825
  - first: {x: -6, y: 3, z: 0}
    second:
      serializedVersion: 2
      m_TileIndex: 100
      m_TileSpriteIndex: 249
      m_TileMatrixIndex: 0
      m_TileColorIndex: 0
      m_TileObjectToInstantiateIndex: 65535
      dummyAlignment: 0
      m_AllTileFlags: 1073741825
  - first: {x: -5, y: 3, z: 0}
    second:
      serializedVersion: 2
      m_TileIndex: 97
      m_TileSpriteIndex: 257
      m_TileMatrixIndex: 0
      m_TileColorIndex: 0
      m_TileObjectToInstantiateIndex: 65535
      dummyAlignment: 0
      m_AllTileFlags: 1073741825
  - first: {x: -4, y: 3, z: 0}
    second:
      serializedVersion: 2
      m_TileIndex: 96
      m_TileSpriteIndex: 256
      m_TileMatrixIndex: 0
      m_TileColorIndex: 0
      m_TileObjectToInstantiateIndex: 65535
      dummyAlignment: 0
      m_AllTileFlags: 1073741825
  - first: {x: -2, y: 3, z: 0}
    second:
      serializedVersion: 2
      m_TileIndex: 6
      m_TileSpriteIndex: 150
      m_TileMatrixIndex: 0
      m_TileColorIndex: 0
      m_TileObjectToInstantiateIndex: 65535
      dummyAlignment: 0
      m_AllTileFlags: 1073741825
  - first: {x: -1, y: 3, z: 0}
    second:
      serializedVersion: 2
      m_TileIndex: 15
      m_TileSpriteIndex: 149
      m_TileMatrixIndex: 0
      m_TileColorIndex: 0
      m_TileObjectToInstantiateIndex: 65535
      dummyAlignment: 0
      m_AllTileFlags: 1073741825
  - first: {x: 0, y: 3, z: 0}
    second:
      serializedVersion: 2
      m_TileIndex: 3
      m_TileSpriteIndex: 148
      m_TileMatrixIndex: 0
      m_TileColorIndex: 0
      m_TileObjectToInstantiateIndex: 65535
      dummyAlignment: 0
      m_AllTileFlags: 1073741825
  - first: {x: 2, y: 3, z: 0}
    second:
      serializedVersion: 2
      m_TileIndex: 56
      m_TileSpriteIndex: 147
      m_TileMatrixIndex: 0
      m_TileColorIndex: 0
      m_TileObjectToInstantiateIndex: 65535
      dummyAlignment: 0
      m_AllTileFlags: 1073741825
  - first: {x: 3, y: 3, z: 0}
    second:
      serializedVersion: 2
      m_TileIndex: 44
      m_TileSpriteIndex: 146
      m_TileMatrixIndex: 0
      m_TileColorIndex: 0
      m_TileObjectToInstantiateIndex: 65535
      dummyAlignment: 0
      m_AllTileFlags: 1073741825
  - first: {x: 4, y: 3, z: 0}
    second:
      serializedVersion: 2
      m_TileIndex: 59
      m_TileSpriteIndex: 145
      m_TileMatrixIndex: 0
      m_TileColorIndex: 0
      m_TileObjectToInstantiateIndex: 65535
      dummyAlignment: 0
      m_AllTileFlags: 1073741825
  - first: {x: 8, y: 3, z: 0}
    second:
      serializedVersion: 2
      m_TileIndex: 260
      m_TileSpriteIndex: 223
      m_TileMatrixIndex: 0
      m_TileColorIndex: 0
      m_TileObjectToInstantiateIndex: 65535
      dummyAlignment: 0
      m_AllTileFlags: 1073741825
  - first: {x: 9, y: 3, z: 0}
    second:
      serializedVersion: 2
      m_TileIndex: 259
      m_TileSpriteIndex: 222
      m_TileMatrixIndex: 0
      m_TileColorIndex: 0
      m_TileObjectToInstantiateIndex: 65535
      dummyAlignment: 0
      m_AllTileFlags: 1073741825
  - first: {x: 11, y: 3, z: 0}
    second:
      serializedVersion: 2
      m_TileIndex: 256
      m_TileSpriteIndex: 217
      m_TileMatrixIndex: 0
      m_TileColorIndex: 0
      m_TileObjectToInstantiateIndex: 65535
      dummyAlignment: 0
      m_AllTileFlags: 1073741825
  - first: {x: 12, y: 3, z: 0}
    second:
      serializedVersion: 2
      m_TileIndex: 250
      m_TileSpriteIndex: 212
      m_TileMatrixIndex: 0
      m_TileColorIndex: 0
      m_TileObjectToInstantiateIndex: 65535
      dummyAlignment: 0
      m_AllTileFlags: 1073741825
  - first: {x: -6, y: 4, z: 0}
    second:
      serializedVersion: 2
      m_TileIndex: 94
      m_TileSpriteIndex: 248
      m_TileMatrixIndex: 0
      m_TileColorIndex: 0
      m_TileObjectToInstantiateIndex: 65535
      dummyAlignment: 0
      m_AllTileFlags: 1073741825
  - first: {x: -5, y: 4, z: 0}
    second:
      serializedVersion: 2
      m_TileIndex: 95
      m_TileSpriteIndex: 247
      m_TileMatrixIndex: 0
      m_TileColorIndex: 0
      m_TileObjectToInstantiateIndex: 65535
      dummyAlignment: 0
      m_AllTileFlags: 1073741825
  - first: {x: -4, y: 4, z: 0}
    second:
      serializedVersion: 2
      m_TileIndex: 93
      m_TileSpriteIndex: 144
      m_TileMatrixIndex: 0
      m_TileColorIndex: 0
      m_TileObjectToInstantiateIndex: 65535
      dummyAlignment: 0
      m_AllTileFlags: 1073741825
  - first: {x: -2, y: 4, z: 0}
    second:
      serializedVersion: 2
      m_TileIndex: 0
      m_TileSpriteIndex: 143
      m_TileMatrixIndex: 0
      m_TileColorIndex: 0
      m_TileObjectToInstantiateIndex: 65535
      dummyAlignment: 0
      m_AllTileFlags: 1073741825
  - first: {x: -1, y: 4, z: 0}
    second:
      serializedVersion: 2
      m_TileIndex: 2
      m_TileSpriteIndex: 142
      m_TileMatrixIndex: 0
      m_TileColorIndex: 0
      m_TileObjectToInstantiateIndex: 65535
      dummyAlignment: 0
      m_AllTileFlags: 1073741825
  - first: {x: 0, y: 4, z: 0}
    second:
      serializedVersion: 2
      m_TileIndex: 1
      m_TileSpriteIndex: 141
      m_TileMatrixIndex: 0
      m_TileColorIndex: 0
      m_TileObjectToInstantiateIndex: 65535
      dummyAlignment: 0
      m_AllTileFlags: 1073741825
  - first: {x: 2, y: 4, z: 0}
    second:
      serializedVersion: 2
      m_TileIndex: 55
      m_TileSpriteIndex: 140
      m_TileMatrixIndex: 0
      m_TileColorIndex: 0
      m_TileObjectToInstantiateIndex: 65535
      dummyAlignment: 0
      m_AllTileFlags: 1073741825
  - first: {x: 3, y: 4, z: 0}
    second:
      serializedVersion: 2
      m_TileIndex: 57
      m_TileSpriteIndex: 139
      m_TileMatrixIndex: 0
      m_TileColorIndex: 0
      m_TileObjectToInstantiateIndex: 65535
      dummyAlignment: 0
      m_AllTileFlags: 1073741825
  - first: {x: 4, y: 4, z: 0}
    second:
      serializedVersion: 2
      m_TileIndex: 48
      m_TileSpriteIndex: 138
      m_TileMatrixIndex: 0
      m_TileColorIndex: 0
      m_TileObjectToInstantiateIndex: 65535
      dummyAlignment: 0
      m_AllTileFlags: 1073741825
  - first: {x: -6, y: 6, z: 0}
    second:
      serializedVersion: 2
      m_TileIndex: 266
      m_TileSpriteIndex: 246
      m_TileMatrixIndex: 0
      m_TileColorIndex: 0
      m_TileObjectToInstantiateIndex: 65535
      dummyAlignment: 0
      m_AllTileFlags: 1073741825
  - first: {x: -5, y: 6, z: 0}
    second:
      serializedVersion: 2
      m_TileIndex: 265
      m_TileSpriteIndex: 233
      m_TileMatrixIndex: 0
      m_TileColorIndex: 0
      m_TileObjectToInstantiateIndex: 65535
      dummyAlignment: 0
      m_AllTileFlags: 1073741825
  - first: {x: -4, y: 6, z: 0}
    second:
      serializedVersion: 2
      m_TileIndex: 46
      m_TileSpriteIndex: 137
      m_TileMatrixIndex: 0
      m_TileColorIndex: 0
      m_TileObjectToInstantiateIndex: 65535
      dummyAlignment: 0
      m_AllTileFlags: 1073741825
  - first: {x: -3, y: 6, z: 0}
    second:
      serializedVersion: 2
      m_TileIndex: 43
      m_TileSpriteIndex: 136
      m_TileMatrixIndex: 0
      m_TileColorIndex: 0
      m_TileObjectToInstantiateIndex: 65535
      dummyAlignment: 0
      m_AllTileFlags: 1073741825
  - first: {x: -2, y: 6, z: 0}
    second:
      serializedVersion: 2
      m_TileIndex: 42
      m_TileSpriteIndex: 135
      m_TileMatrixIndex: 0
      m_TileColorIndex: 0
      m_TileObjectToInstantiateIndex: 65535
      dummyAlignment: 0
      m_AllTileFlags: 1073741825
  - first: {x: -1, y: 6, z: 0}
    second:
      serializedVersion: 2
      m_TileIndex: 27
      m_TileSpriteIndex: 134
      m_TileMatrixIndex: 0
      m_TileColorIndex: 0
      m_TileObjectToInstantiateIndex: 65535
      dummyAlignment: 0
      m_AllTileFlags: 1073741825
  - first: {x: 1, y: 6, z: 0}
    second:
      serializedVersion: 2
      m_TileIndex: 20
      m_TileSpriteIndex: 133
      m_TileMatrixIndex: 0
      m_TileColorIndex: 0
      m_TileObjectToInstantiateIndex: 65535
      dummyAlignment: 0
      m_AllTileFlags: 1073741825
  - first: {x: 2, y: 6, z: 0}
    second:
      serializedVersion: 2
      m_TileIndex: 21
      m_TileSpriteIndex: 132
      m_TileMatrixIndex: 0
      m_TileColorIndex: 0
      m_TileObjectToInstantiateIndex: 65535
      dummyAlignment: 0
      m_AllTileFlags: 1073741825
  - first: {x: 3, y: 6, z: 0}
    second:
      serializedVersion: 2
      m_TileIndex: 34
      m_TileSpriteIndex: 131
      m_TileMatrixIndex: 0
      m_TileColorIndex: 0
      m_TileObjectToInstantiateIndex: 65535
      dummyAlignment: 0
      m_AllTileFlags: 1073741825
  - first: {x: 4, y: 6, z: 0}
    second:
      serializedVersion: 2
      m_TileIndex: 33
      m_TileSpriteIndex: 130
      m_TileMatrixIndex: 0
      m_TileColorIndex: 0
      m_TileObjectToInstantiateIndex: 65535
      dummyAlignment: 0
      m_AllTileFlags: 1073741825
  - first: {x: -6, y: 7, z: 0}
    second:
      serializedVersion: 2
      m_TileIndex: 264
      m_TileSpriteIndex: 232
      m_TileMatrixIndex: 0
      m_TileColorIndex: 0
      m_TileObjectToInstantiateIndex: 65535
      dummyAlignment: 0
      m_AllTileFlags: 1073741825
  - first: {x: -5, y: 7, z: 0}
    second:
      serializedVersion: 2
      m_TileIndex: 263
      m_TileSpriteIndex: 231
      m_TileMatrixIndex: 0
      m_TileColorIndex: 0
      m_TileObjectToInstantiateIndex: 65535
      dummyAlignment: 0
      m_AllTileFlags: 1073741825
  - first: {x: -4, y: 7, z: 0}
    second:
      serializedVersion: 2
      m_TileIndex: 26
      m_TileSpriteIndex: 129
      m_TileMatrixIndex: 0
      m_TileColorIndex: 0
      m_TileObjectToInstantiateIndex: 65535
      dummyAlignment: 0
      m_AllTileFlags: 1073741825
  - first: {x: -3, y: 7, z: 0}
    second:
      serializedVersion: 2
      m_TileIndex: 25
      m_TileSpriteIndex: 128
      m_TileMatrixIndex: 0
      m_TileColorIndex: 0
      m_TileObjectToInstantiateIndex: 65535
      dummyAlignment: 0
      m_AllTileFlags: 1073741825
  - first: {x: -2, y: 7, z: 0}
    second:
      serializedVersion: 2
      m_TileIndex: 24
      m_TileSpriteIndex: 127
      m_TileMatrixIndex: 0
      m_TileColorIndex: 0
      m_TileObjectToInstantiateIndex: 65535
      dummyAlignment: 0
      m_AllTileFlags: 1073741825
  - first: {x: -1, y: 7, z: 0}
    second:
      serializedVersion: 2
      m_TileIndex: 14
      m_TileSpriteIndex: 126
      m_TileMatrixIndex: 0
      m_TileColorIndex: 0
      m_TileObjectToInstantiateIndex: 65535
      dummyAlignment: 0
      m_AllTileFlags: 1073741825
  - first: {x: 1, y: 7, z: 0}
    second:
      serializedVersion: 2
      m_TileIndex: 16
      m_TileSpriteIndex: 125
      m_TileMatrixIndex: 0
      m_TileColorIndex: 0
      m_TileObjectToInstantiateIndex: 65535
      dummyAlignment: 0
      m_AllTileFlags: 1073741825
  - first: {x: 2, y: 7, z: 0}
    second:
      serializedVersion: 2
      m_TileIndex: 17
      m_TileSpriteIndex: 124
      m_TileMatrixIndex: 0
      m_TileColorIndex: 0
      m_TileObjectToInstantiateIndex: 65535
      dummyAlignment: 0
      m_AllTileFlags: 1073741825
  - first: {x: 3, y: 7, z: 0}
    second:
      serializedVersion: 2
      m_TileIndex: 29
      m_TileSpriteIndex: 123
      m_TileMatrixIndex: 0
      m_TileColorIndex: 0
      m_TileObjectToInstantiateIndex: 65535
      dummyAlignment: 0
      m_AllTileFlags: 1073741825
  - first: {x: 4, y: 7, z: 0}
    second:
      serializedVersion: 2
      m_TileIndex: 30
      m_TileSpriteIndex: 122
      m_TileMatrixIndex: 0
      m_TileColorIndex: 0
      m_TileObjectToInstantiateIndex: 65535
      dummyAlignment: 0
      m_AllTileFlags: 1073741825
  - first: {x: 6, y: 7, z: 0}
    second:
      serializedVersion: 2
      m_TileIndex: 36
      m_TileSpriteIndex: 121
      m_TileMatrixIndex: 0
      m_TileColorIndex: 0
      m_TileObjectToInstantiateIndex: 65535
      dummyAlignment: 0
      m_AllTileFlags: 1073741825
  - first: {x: 7, y: 7, z: 0}
    second:
      serializedVersion: 2
      m_TileIndex: 35
      m_TileSpriteIndex: 120
      m_TileMatrixIndex: 0
      m_TileColorIndex: 0
      m_TileObjectToInstantiateIndex: 65535
      dummyAlignment: 0
      m_AllTileFlags: 1073741825
  - first: {x: 1, y: 8, z: 0}
    second:
      serializedVersion: 2
      m_TileIndex: 19
      m_TileSpriteIndex: 119
      m_TileMatrixIndex: 0
      m_TileColorIndex: 0
      m_TileObjectToInstantiateIndex: 65535
      dummyAlignment: 0
      m_AllTileFlags: 1073741825
  - first: {x: 2, y: 8, z: 0}
    second:
      serializedVersion: 2
      m_TileIndex: 18
      m_TileSpriteIndex: 118
      m_TileMatrixIndex: 0
      m_TileColorIndex: 0
      m_TileObjectToInstantiateIndex: 65535
      dummyAlignment: 0
      m_AllTileFlags: 1073741825
  - first: {x: 3, y: 8, z: 0}
    second:
      serializedVersion: 2
      m_TileIndex: 32
      m_TileSpriteIndex: 117
      m_TileMatrixIndex: 0
      m_TileColorIndex: 0
      m_TileObjectToInstantiateIndex: 65535
      dummyAlignment: 0
      m_AllTileFlags: 1073741825
  - first: {x: 4, y: 8, z: 0}
    second:
      serializedVersion: 2
      m_TileIndex: 31
      m_TileSpriteIndex: 116
      m_TileMatrixIndex: 0
      m_TileColorIndex: 0
      m_TileObjectToInstantiateIndex: 65535
      dummyAlignment: 0
      m_AllTileFlags: 1073741825
  - first: {x: 6, y: 8, z: 0}
    second:
      serializedVersion: 2
      m_TileIndex: 23
      m_TileSpriteIndex: 115
      m_TileMatrixIndex: 0
      m_TileColorIndex: 0
      m_TileObjectToInstantiateIndex: 65535
      dummyAlignment: 0
      m_AllTileFlags: 1073741825
  - first: {x: 7, y: 8, z: 0}
    second:
      serializedVersion: 2
      m_TileIndex: 22
      m_TileSpriteIndex: 114
      m_TileMatrixIndex: 0
      m_TileColorIndex: 0
      m_TileObjectToInstantiateIndex: 65535
      dummyAlignment: 0
      m_AllTileFlags: 1073741825
  m_AnimatedTiles: {}
  m_TileAssetArray:
  - m_RefCount: 1
    m_Data: {fileID: 11400000, guid: a02c504be987af74baf5e457adb558b1, type: 2}
  - m_RefCount: 1
    m_Data: {fileID: 11400000, guid: 5fabf517a4cbc2f42abc1f566534834c, type: 2}
  - m_RefCount: 1
    m_Data: {fileID: 11400000, guid: 1fcf842b8864344459737f9e3984176e, type: 2}
  - m_RefCount: 1
    m_Data: {fileID: 11400000, guid: 7955f9dfacea0f74c85046ad3726c652, type: 2}
  - m_RefCount: 1
    m_Data: {fileID: 11400000, guid: 793b179d90a874e40b868ab3c045cae1, type: 2}
  - m_RefCount: 1
    m_Data: {fileID: 11400000, guid: 1a07337f27e89b845b36e159015e16ba, type: 2}
  - m_RefCount: 1
    m_Data: {fileID: 11400000, guid: 963b25a99597f4146825726ef3d1a852, type: 2}
  - m_RefCount: 1
    m_Data: {fileID: 11400000, guid: 8a6ecd3e0ccec0743a22f21956ad868c, type: 2}
  - m_RefCount: 0
    m_Data: {fileID: 0}
  - m_RefCount: 0
    m_Data: {fileID: 0}
  - m_RefCount: 0
    m_Data: {fileID: 0}
  - m_RefCount: 0
    m_Data: {fileID: 0}
  - m_RefCount: 1
    m_Data: {fileID: 11400000, guid: a5fd8220715ec524e88d12ebefe3f439, type: 2}
  - m_RefCount: 0
    m_Data: {fileID: 0}
  - m_RefCount: 1
    m_Data: {fileID: 11400000, guid: f046711b732751a40bc7cbfb0474b1be, type: 2}
  - m_RefCount: 1
    m_Data: {fileID: 11400000, guid: 9a3e1da74a45dae4d99109834a78a13b, type: 2}
  - m_RefCount: 1
    m_Data: {fileID: 11400000, guid: 61b4a06f42fab7a4b90e3b4ebbd9ac24, type: 2}
  - m_RefCount: 1
    m_Data: {fileID: 11400000, guid: 09d42117d246f7144b8eb4505d24665c, type: 2}
  - m_RefCount: 1
    m_Data: {fileID: 11400000, guid: 5e01dfbbc87755148ae253175300710e, type: 2}
  - m_RefCount: 1
    m_Data: {fileID: 11400000, guid: eba87e6928ea7004cacbefe5e2b2dfd0, type: 2}
  - m_RefCount: 1
    m_Data: {fileID: 11400000, guid: 0489f8ca658b1bc47b47428d8d719d62, type: 2}
  - m_RefCount: 1
    m_Data: {fileID: 11400000, guid: 3e1905a844106c84f9bfa9c1abc01397, type: 2}
  - m_RefCount: 1
    m_Data: {fileID: 11400000, guid: b468b525065775247956a77c8447ccba, type: 2}
  - m_RefCount: 1
    m_Data: {fileID: 11400000, guid: 1d643f33d4f4e284e918c184f5ebb95d, type: 2}
  - m_RefCount: 1
    m_Data: {fileID: 11400000, guid: 632de2bdd6d830247a7ac932e321f8fa, type: 2}
  - m_RefCount: 1
    m_Data: {fileID: 11400000, guid: c50880ea034ea2f468cecaf288a5ab8f, type: 2}
  - m_RefCount: 1
    m_Data: {fileID: 11400000, guid: 255b95fe6490ec44db659ebb8b1643a1, type: 2}
  - m_RefCount: 1
    m_Data: {fileID: 11400000, guid: 20f5127e34a4f7549952107be7bebba0, type: 2}
  - m_RefCount: 1
    m_Data: {fileID: 11400000, guid: 2e4b6fc51618ab94b841195d141f2f3e, type: 2}
  - m_RefCount: 1
    m_Data: {fileID: 11400000, guid: d1dd820a3a9f59d48b67036cd2e25fd6, type: 2}
  - m_RefCount: 1
    m_Data: {fileID: 11400000, guid: fb5f4354feffcfb46a92c870b3c7bd74, type: 2}
  - m_RefCount: 1
    m_Data: {fileID: 11400000, guid: e984efb2653412445a371d9d26c38d11, type: 2}
  - m_RefCount: 1
    m_Data: {fileID: 11400000, guid: 21454ab638f666242a6144616aad3a59, type: 2}
  - m_RefCount: 1
    m_Data: {fileID: 11400000, guid: 703f7429165da1b4395c9391282a64af, type: 2}
  - m_RefCount: 1
    m_Data: {fileID: 11400000, guid: cc471883af24bd3489e37bdcac3e4a71, type: 2}
  - m_RefCount: 1
    m_Data: {fileID: 11400000, guid: 1d8af88d4387bc54d96f0b48ffa37612, type: 2}
  - m_RefCount: 1
    m_Data: {fileID: 11400000, guid: f51635aafede49b4983b2acd4df61bc4, type: 2}
  - m_RefCount: 1
    m_Data: {fileID: 11400000, guid: e1fae0b4db241c94ca41d60ace7dd0ef, type: 2}
  - m_RefCount: 1
    m_Data: {fileID: 11400000, guid: d37c4b6bf17a0014b8496e5f2ac7e52b, type: 2}
  - m_RefCount: 1
    m_Data: {fileID: 11400000, guid: 25438973848146c4aaa46bab451c16da, type: 2}
  - m_RefCount: 1
    m_Data: {fileID: 11400000, guid: 2b8cbee532fc1be41aff33e3c157149d, type: 2}
  - m_RefCount: 1
    m_Data: {fileID: 11400000, guid: 1b2f7b6ee8b242a4db59724c7e12ad71, type: 2}
  - m_RefCount: 1
    m_Data: {fileID: 11400000, guid: 296d65d4d7c3b25479e45db425449c36, type: 2}
  - m_RefCount: 1
    m_Data: {fileID: 11400000, guid: 8d767ad309ca76a4caff736a8de1e575, type: 2}
  - m_RefCount: 1
    m_Data: {fileID: 11400000, guid: 3bbdd833faa14a94aa5ba6b133c40b17, type: 2}
  - m_RefCount: 1
    m_Data: {fileID: 11400000, guid: b9212eb59da48a049bb679f8352e6ac9, type: 2}
  - m_RefCount: 1
    m_Data: {fileID: 11400000, guid: 5a554aabbb61fd44d97f8db0ff81ea41, type: 2}
  - m_RefCount: 1
    m_Data: {fileID: 11400000, guid: 97cb923e7c5aae24a848d850b8dba438, type: 2}
  - m_RefCount: 1
    m_Data: {fileID: 11400000, guid: cd73c2b0fb842804ab8c453f9c93e867, type: 2}
  - m_RefCount: 1
    m_Data: {fileID: 11400000, guid: 8174c070628d0e349b0130817158034a, type: 2}
  - m_RefCount: 1
    m_Data: {fileID: 11400000, guid: 9590ad807d257724f8e7bb93878852a6, type: 2}
  - m_RefCount: 1
    m_Data: {fileID: 11400000, guid: 8736adc018f6b6648b31c62190c9a833, type: 2}
  - m_RefCount: 1
    m_Data: {fileID: 11400000, guid: 37106cbce80efd240af617144278eb79, type: 2}
  - m_RefCount: 1
    m_Data: {fileID: 11400000, guid: 3a1267a7ceb0a7141af61e47dfb27800, type: 2}
  - m_RefCount: 1
    m_Data: {fileID: 11400000, guid: 5ed97c02aa6fe2f48af1faabddc10842, type: 2}
  - m_RefCount: 1
    m_Data: {fileID: 11400000, guid: 84e887d31cdcd844e804736ab0d26a78, type: 2}
  - m_RefCount: 1
    m_Data: {fileID: 11400000, guid: 3cd4d6e3fce4a7749bd613407e2bb48c, type: 2}
  - m_RefCount: 1
    m_Data: {fileID: 11400000, guid: 7c029c7164fb85a4b8e6538179476b72, type: 2}
  - m_RefCount: 1
    m_Data: {fileID: 11400000, guid: f29974377b75c6b4a83c821b825ea88d, type: 2}
  - m_RefCount: 1
    m_Data: {fileID: 11400000, guid: 2d7ec6b0fc2306f46a39ab81c717a492, type: 2}
  - m_RefCount: 1
    m_Data: {fileID: 11400000, guid: acbe74a9b34f9ee4dafa84b08d1f7946, type: 2}
  - m_RefCount: 1
    m_Data: {fileID: 11400000, guid: 3d52c94e5a33cbb46b190234a6fa992c, type: 2}
  - m_RefCount: 1
    m_Data: {fileID: 11400000, guid: d0424ddc048e9cf43871e730d3349c9c, type: 2}
  - m_RefCount: 1
    m_Data: {fileID: 11400000, guid: 07ca6504a7b09c34cb8a618abae49594, type: 2}
  - m_RefCount: 1
    m_Data: {fileID: 11400000, guid: 4daf568613de0104c8e79a52d69842a0, type: 2}
  - m_RefCount: 1
    m_Data: {fileID: 11400000, guid: 66f3702de3a94774099c83dbf690afd6, type: 2}
  - m_RefCount: 1
    m_Data: {fileID: 11400000, guid: 501ded950e66c8d44b6a57202a957d24, type: 2}
  - m_RefCount: 1
    m_Data: {fileID: 11400000, guid: c93a37ef18e5c4c4e9552f501c86e94b, type: 2}
  - m_RefCount: 1
    m_Data: {fileID: 11400000, guid: 5c537b0dc18d5034eb1a214daeca4311, type: 2}
  - m_RefCount: 1
    m_Data: {fileID: 11400000, guid: 666de3f5c30a58d4aac351d23954aa88, type: 2}
  - m_RefCount: 1
    m_Data: {fileID: 11400000, guid: 4c86eec56b871d547988f071aed6a48d, type: 2}
  - m_RefCount: 1
    m_Data: {fileID: 11400000, guid: 20846d2274af1f64eb30bc7f81f56c28, type: 2}
  - m_RefCount: 1
    m_Data: {fileID: 11400000, guid: 2cbe605cc34e46c40b0080dfa197c57c, type: 2}
  - m_RefCount: 1
    m_Data: {fileID: 11400000, guid: cc03d97d59160214f9b3b4673ec34610, type: 2}
  - m_RefCount: 1
    m_Data: {fileID: 11400000, guid: 9f7059a0dc288d7479bc3e407dea1937, type: 2}
  - m_RefCount: 1
    m_Data: {fileID: 11400000, guid: e3d718e2dd710a74ab51f1caeafc6f34, type: 2}
  - m_RefCount: 1
    m_Data: {fileID: 11400000, guid: 9d4f7bca41d84d64dbf7de8d9977b3e8, type: 2}
  - m_RefCount: 1
    m_Data: {fileID: 11400000, guid: 7f642daa85e9b414a8603be74f3c3bd0, type: 2}
  - m_RefCount: 1
    m_Data: {fileID: 11400000, guid: ea51857923ca27346b422cb110e895a4, type: 2}
  - m_RefCount: 1
    m_Data: {fileID: 11400000, guid: 47f04ca2dce45d04db759c53fed4eab4, type: 2}
  - m_RefCount: 1
    m_Data: {fileID: 11400000, guid: 789e05f37caef2548ba2f42453347b3d, type: 2}
  - m_RefCount: 1
    m_Data: {fileID: 11400000, guid: bf0193b68b02a1c43a80eeec13b304af, type: 2}
  - m_RefCount: 1
    m_Data: {fileID: 11400000, guid: df851536a690d7e41bbb4f24ce39d601, type: 2}
  - m_RefCount: 1
    m_Data: {fileID: 11400000, guid: 1c0e2f7bcfe08094a814fadbf85eeddd, type: 2}
  - m_RefCount: 1
    m_Data: {fileID: 11400000, guid: 6e1f6ff459c40fc4b8ca41c1d0e826c4, type: 2}
  - m_RefCount: 1
    m_Data: {fileID: 11400000, guid: 6f55dcd768c98854480712833cd69646, type: 2}
  - m_RefCount: 1
    m_Data: {fileID: 11400000, guid: bbcb62f37dc65b8459eb25b237b963cf, type: 2}
  - m_RefCount: 1
    m_Data: {fileID: 11400000, guid: 0d551348c8b12fa41bac87cec6ac3916, type: 2}
  - m_RefCount: 1
    m_Data: {fileID: 11400000, guid: c79d5726d193a694fb23de049ea96e28, type: 2}
  - m_RefCount: 1
    m_Data: {fileID: 11400000, guid: 1351a94afd3441e448be20c09dae2897, type: 2}
  - m_RefCount: 1
    m_Data: {fileID: 11400000, guid: 02178e33c4ec4c84bbd5bd52875a09e6, type: 2}
  - m_RefCount: 1
    m_Data: {fileID: 11400000, guid: eaf55df44c346614b951f057bdf40e47, type: 2}
  - m_RefCount: 1
    m_Data: {fileID: 11400000, guid: 769416bada79cec46bb73a3d656c8787, type: 2}
  - m_RefCount: 1
    m_Data: {fileID: 11400000, guid: d0921ab7bd8c8bf458a60cfc604d422d, type: 2}
  - m_RefCount: 1
    m_Data: {fileID: 11400000, guid: 743e26e733b11e849852b7bc6719ac33, type: 2}
  - m_RefCount: 1
    m_Data: {fileID: 11400000, guid: be335a3b824bc2c418855db04f83052b, type: 2}
  - m_RefCount: 1
    m_Data: {fileID: 11400000, guid: 9082eaf414abf414ebf9fdda90c99477, type: 2}
  - m_RefCount: 1
    m_Data: {fileID: 11400000, guid: b55cc27418748234289388b013af543d, type: 2}
  - m_RefCount: 1
    m_Data: {fileID: 11400000, guid: d86354c61a694d949aa087318a91d708, type: 2}
  - m_RefCount: 1
    m_Data: {fileID: 11400000, guid: 881a5bf534c52544389d8b69d4537a54, type: 2}
  - m_RefCount: 1
    m_Data: {fileID: 11400000, guid: cef47de43ccb377439cb90990441f577, type: 2}
  - m_RefCount: 1
    m_Data: {fileID: 11400000, guid: 5a93c7cbb22de5a43a909cb30bf331f9, type: 2}
  - m_RefCount: 1
    m_Data: {fileID: 11400000, guid: 812a5181162a700408c215fabdd440e5, type: 2}
  - m_RefCount: 0
    m_Data: {fileID: 0}
  - m_RefCount: 0
    m_Data: {fileID: 0}
  - m_RefCount: 0
    m_Data: {fileID: 0}
  - m_RefCount: 0
    m_Data: {fileID: 0}
  - m_RefCount: 0
    m_Data: {fileID: 0}
  - m_RefCount: 0
    m_Data: {fileID: 0}
  - m_RefCount: 0
    m_Data: {fileID: 0}
  - m_RefCount: 0
    m_Data: {fileID: 0}
  - m_RefCount: 0
    m_Data: {fileID: 0}
  - m_RefCount: 0
    m_Data: {fileID: 0}
  - m_RefCount: 0
    m_Data: {fileID: 0}
  - m_RefCount: 0
    m_Data: {fileID: 0}
  - m_RefCount: 0
    m_Data: {fileID: 0}
  - m_RefCount: 0
    m_Data: {fileID: 0}
  - m_RefCount: 0
    m_Data: {fileID: 0}
  - m_RefCount: 0
    m_Data: {fileID: 0}
  - m_RefCount: 0
    m_Data: {fileID: 0}
  - m_RefCount: 0
    m_Data: {fileID: 0}
  - m_RefCount: 0
    m_Data: {fileID: 0}
  - m_RefCount: 1
    m_Data: {fileID: 11400000, guid: 9826d07ff912fff4ba521642d8c1af25, type: 2}
  - m_RefCount: 0
    m_Data: {fileID: 0}
  - m_RefCount: 0
    m_Data: {fileID: 0}
  - m_RefCount: 0
    m_Data: {fileID: 0}
  - m_RefCount: 0
    m_Data: {fileID: 0}
  - m_RefCount: 0
    m_Data: {fileID: 0}
  - m_RefCount: 0
    m_Data: {fileID: 0}
  - m_RefCount: 0
    m_Data: {fileID: 0}
  - m_RefCount: 0
    m_Data: {fileID: 0}
  - m_RefCount: 0
    m_Data: {fileID: 0}
  - m_RefCount: 0
    m_Data: {fileID: 0}
  - m_RefCount: 0
    m_Data: {fileID: 0}
  - m_RefCount: 0
    m_Data: {fileID: 0}
  - m_RefCount: 0
    m_Data: {fileID: 0}
  - m_RefCount: 0
    m_Data: {fileID: 0}
  - m_RefCount: 0
    m_Data: {fileID: 0}
  - m_RefCount: 0
    m_Data: {fileID: 0}
  - m_RefCount: 0
    m_Data: {fileID: 0}
  - m_RefCount: 1
    m_Data: {fileID: 11400000, guid: a69b71ac45f55a7479742a292dc2d05e, type: 2}
  - m_RefCount: 0
    m_Data: {fileID: 0}
  - m_RefCount: 0
    m_Data: {fileID: 0}
  - m_RefCount: 0
    m_Data: {fileID: 0}
  - m_RefCount: 0
    m_Data: {fileID: 0}
  - m_RefCount: 0
    m_Data: {fileID: 0}
  - m_RefCount: 0
    m_Data: {fileID: 0}
  - m_RefCount: 0
    m_Data: {fileID: 0}
  - m_RefCount: 0
    m_Data: {fileID: 0}
  - m_RefCount: 0
    m_Data: {fileID: 0}
  - m_RefCount: 0
    m_Data: {fileID: 0}
  - m_RefCount: 1
    m_Data: {fileID: 11400000, guid: d658c8a5f8be4bb459cc4c33e7646f7c, type: 2}
  - m_RefCount: 0
    m_Data: {fileID: 0}
  - m_RefCount: 0
    m_Data: {fileID: 0}
  - m_RefCount: 0
    m_Data: {fileID: 0}
  - m_RefCount: 0
    m_Data: {fileID: 0}
  - m_RefCount: 0
    m_Data: {fileID: 0}
  - m_RefCount: 0
    m_Data: {fileID: 0}
  - m_RefCount: 0
    m_Data: {fileID: 0}
  - m_RefCount: 0
    m_Data: {fileID: 0}
  - m_RefCount: 0
    m_Data: {fileID: 0}
  - m_RefCount: 0
    m_Data: {fileID: 0}
  - m_RefCount: 0
    m_Data: {fileID: 0}
  - m_RefCount: 0
    m_Data: {fileID: 0}
  - m_RefCount: 0
    m_Data: {fileID: 0}
  - m_RefCount: 0
    m_Data: {fileID: 0}
  - m_RefCount: 0
    m_Data: {fileID: 0}
  - m_RefCount: 0
    m_Data: {fileID: 0}
  - m_RefCount: 0
    m_Data: {fileID: 0}
  - m_RefCount: 0
    m_Data: {fileID: 0}
  - m_RefCount: 0
    m_Data: {fileID: 0}
  - m_RefCount: 0
    m_Data: {fileID: 0}
  - m_RefCount: 0
    m_Data: {fileID: 0}
  - m_RefCount: 0
    m_Data: {fileID: 0}
  - m_RefCount: 0
    m_Data: {fileID: 0}
  - m_RefCount: 0
    m_Data: {fileID: 0}
  - m_RefCount: 0
    m_Data: {fileID: 0}
  - m_RefCount: 0
    m_Data: {fileID: 0}
  - m_RefCount: 0
    m_Data: {fileID: 0}
  - m_RefCount: 0
    m_Data: {fileID: 0}
  - m_RefCount: 0
    m_Data: {fileID: 0}
  - m_RefCount: 0
    m_Data: {fileID: 0}
  - m_RefCount: 0
    m_Data: {fileID: 0}
  - m_RefCount: 0
    m_Data: {fileID: 0}
  - m_RefCount: 0
    m_Data: {fileID: 0}
  - m_RefCount: 0
    m_Data: {fileID: 0}
  - m_RefCount: 0
    m_Data: {fileID: 0}
  - m_RefCount: 0
    m_Data: {fileID: 0}
  - m_RefCount: 0
    m_Data: {fileID: 0}
  - m_RefCount: 0
    m_Data: {fileID: 0}
  - m_RefCount: 0
    m_Data: {fileID: 0}
  - m_RefCount: 0
    m_Data: {fileID: 0}
  - m_RefCount: 0
    m_Data: {fileID: 0}
  - m_RefCount: 0
    m_Data: {fileID: 0}
  - m_RefCount: 0
    m_Data: {fileID: 0}
  - m_RefCount: 0
    m_Data: {fileID: 0}
  - m_RefCount: 0
    m_Data: {fileID: 0}
  - m_RefCount: 0
    m_Data: {fileID: 0}
  - m_RefCount: 0
    m_Data: {fileID: 0}
  - m_RefCount: 0
    m_Data: {fileID: 0}
  - m_RefCount: 0
    m_Data: {fileID: 0}
  - m_RefCount: 0
    m_Data: {fileID: 0}
  - m_RefCount: 0
    m_Data: {fileID: 0}
  - m_RefCount: 0
    m_Data: {fileID: 0}
  - m_RefCount: 0
    m_Data: {fileID: 0}
  - m_RefCount: 0
    m_Data: {fileID: 0}
  - m_RefCount: 0
    m_Data: {fileID: 0}
  - m_RefCount: 0
    m_Data: {fileID: 0}
  - m_RefCount: 0
    m_Data: {fileID: 0}
  - m_RefCount: 0
    m_Data: {fileID: 0}
  - m_RefCount: 0
    m_Data: {fileID: 0}
  - m_RefCount: 0
    m_Data: {fileID: 0}
  - m_RefCount: 0
    m_Data: {fileID: 0}
  - m_RefCount: 0
    m_Data: {fileID: 0}
  - m_RefCount: 0
    m_Data: {fileID: 0}
  - m_RefCount: 0
    m_Data: {fileID: 0}
  - m_RefCount: 0
    m_Data: {fileID: 0}
  - m_RefCount: 0
    m_Data: {fileID: 0}
  - m_RefCount: 0
    m_Data: {fileID: 0}
  - m_RefCount: 0
    m_Data: {fileID: 0}
  - m_RefCount: 0
    m_Data: {fileID: 0}
  - m_RefCount: 1
    m_Data: {fileID: 11400000, guid: 16969d9ac26b2274c908377acd353c16, type: 2}
  - m_RefCount: 1
    m_Data: {fileID: 11400000, guid: 761d77f95b382a747a4792af82cb1d9c, type: 2}
  - m_RefCount: 1
    m_Data: {fileID: 11400000, guid: 9485d373f72cb7a4ea468c3000d88aa0, type: 2}
  - m_RefCount: 1
    m_Data: {fileID: 11400000, guid: 8569b6fc566c6c440b581473eeeee320, type: 2}
  - m_RefCount: 1
    m_Data: {fileID: 11400000, guid: 125e0e5650b51b74b867f9c31e1a1b4e, type: 2}
  - m_RefCount: 1
    m_Data: {fileID: 11400000, guid: b3c4fb26cf6714a4b87a67ad6ede4ead, type: 2}
  - m_RefCount: 1
    m_Data: {fileID: 11400000, guid: ac32a85e6e57ef446b500761d3060413, type: 2}
  - m_RefCount: 1
    m_Data: {fileID: 11400000, guid: 79f8962a8eaaea749a136e548bcc3a4b, type: 2}
  - m_RefCount: 1
    m_Data: {fileID: 11400000, guid: 7b431ce8751c7a54a9f9d6c862298893, type: 2}
  - m_RefCount: 1
    m_Data: {fileID: 11400000, guid: a34ed804536730f4eac7311e54fb82c3, type: 2}
  - m_RefCount: 1
    m_Data: {fileID: 11400000, guid: b0e1429083873e04784ecbba7ed9cf3b, type: 2}
  - m_RefCount: 1
    m_Data: {fileID: 11400000, guid: 23430336f88a5ea43b14edf2ab635bdf, type: 2}
  - m_RefCount: 1
    m_Data: {fileID: 11400000, guid: ddeea0bcee1a2dc4994bc5b85b24adde, type: 2}
  - m_RefCount: 1
    m_Data: {fileID: 11400000, guid: f09ead2b460ccca44b3ab39a7e482d43, type: 2}
  - m_RefCount: 1
    m_Data: {fileID: 11400000, guid: 88fe4bbad8d123a468460987a93f82d8, type: 2}
  - m_RefCount: 1
    m_Data: {fileID: 11400000, guid: 10de9312e8b9c7c40854577a8ff018f0, type: 2}
  - m_RefCount: 1
    m_Data: {fileID: 11400000, guid: 36526f2a724a62d45b3ea23cb3f6a274, type: 2}
  - m_RefCount: 1
    m_Data: {fileID: 11400000, guid: 207a0dbe1d103a544ba2d21c16c169be, type: 2}
  - m_RefCount: 1
    m_Data: {fileID: 11400000, guid: 0d16529397668d140bbe668643165361, type: 2}
  - m_RefCount: 1
    m_Data: {fileID: 11400000, guid: ca2d8bb98f860b94db247d437b71f937, type: 2}
  - m_RefCount: 1
    m_Data: {fileID: 11400000, guid: c57e7964994c13a4fa9e4f7b246d3f8b, type: 2}
  - m_RefCount: 1
    m_Data: {fileID: 11400000, guid: 109889a97d985bc4392d8fb9c3c730c3, type: 2}
  - m_RefCount: 1
    m_Data: {fileID: 11400000, guid: c03efe16b469adf428de1fdb82b64c53, type: 2}
  - m_RefCount: 1
    m_Data: {fileID: 11400000, guid: 44abf1dac88aba645b0ffeab5395d529, type: 2}
  - m_RefCount: 1
    m_Data: {fileID: 11400000, guid: 29745a95581581e4c93a4faf9208d645, type: 2}
  - m_RefCount: 1
    m_Data: {fileID: 11400000, guid: d19256eb4e7845449b2cd65047dba9cb, type: 2}
  - m_RefCount: 1
    m_Data: {fileID: 11400000, guid: 12c8f5edccc82c641bd7c42f3e7ab21e, type: 2}
  - m_RefCount: 1
    m_Data: {fileID: 11400000, guid: c661cbe5ee024374baefb0c4dbf85bc2, type: 2}
  - m_RefCount: 1
    m_Data: {fileID: 11400000, guid: db93915f8e9dee74198f9a0763d4b866, type: 2}
  - m_RefCount: 1
    m_Data: {fileID: 11400000, guid: cd4771ce152dd6b40a6d53b2d8ba4fca, type: 2}
  - m_RefCount: 1
    m_Data: {fileID: 11400000, guid: 21bbb55333102d44995133b0b154cbee, type: 2}
  - m_RefCount: 1
    m_Data: {fileID: 11400000, guid: 31df245ba41999847bad0b6a342f8e1a, type: 2}
  - m_RefCount: 1
    m_Data: {fileID: 11400000, guid: a2a2d8c4dd95c8b48aa1b588cb727b75, type: 2}
  - m_RefCount: 1
    m_Data: {fileID: 11400000, guid: 09b74e4319b38e34893bd453878e1210, type: 2}
  - m_RefCount: 1
    m_Data: {fileID: 11400000, guid: 83235ae9e340d5c448f1f2064c79d920, type: 2}
  - m_RefCount: 1
    m_Data: {fileID: 11400000, guid: ba27387e107b1374f917e54e8d624d83, type: 2}
  - m_RefCount: 1
    m_Data: {fileID: 11400000, guid: bf793afb6d1b1004dabcfb7d02b840af, type: 2}
  - m_RefCount: 1
    m_Data: {fileID: 11400000, guid: 92ee30467a99e6f41adafb69d1ea346f, type: 2}
  - m_RefCount: 1
    m_Data: {fileID: 11400000, guid: 0049cdcd1d3eaf44fb5af0d588fc383c, type: 2}
  - m_RefCount: 1
    m_Data: {fileID: 11400000, guid: 462dc46aaa599364b91757a4458f06ee, type: 2}
  - m_RefCount: 1
    m_Data: {fileID: 11400000, guid: cac55a1d09225d64d9a8db1373f0bae9, type: 2}
  - m_RefCount: 1
    m_Data: {fileID: 11400000, guid: 04c0eff5c1a245e4aaba31c203e6c89c, type: 2}
  - m_RefCount: 1
    m_Data: {fileID: 11400000, guid: df5adc19f390b4f43a0f8dde8b63b043, type: 2}
  - m_RefCount: 1
    m_Data: {fileID: 11400000, guid: d28ed5dcb01bd764e8ea5cc99c4407fd, type: 2}
  - m_RefCount: 1
    m_Data: {fileID: 11400000, guid: ada49ff39b80b1248bd872cd0221d126, type: 2}
  - m_RefCount: 1
    m_Data: {fileID: 11400000, guid: 435f82e2a58156542b9311a3e4f3f701, type: 2}
  - m_RefCount: 1
    m_Data: {fileID: 11400000, guid: 03278953340eb354390aff022ecca3fd, type: 2}
  - m_RefCount: 1
    m_Data: {fileID: 11400000, guid: 7fa66574af9555245afe3e5d2587030f, type: 2}
  - m_RefCount: 1
    m_Data: {fileID: 11400000, guid: 46c956916f6876640ab0ad3cbdea668a, type: 2}
  m_TileSpriteArray:
  - m_RefCount: 0
    m_Data: {fileID: 0}
  - m_RefCount: 0
    m_Data: {fileID: 0}
  - m_RefCount: 0
    m_Data: {fileID: 0}
  - m_RefCount: 0
    m_Data: {fileID: 0}
  - m_RefCount: 0
    m_Data: {fileID: 0}
  - m_RefCount: 0
    m_Data: {fileID: 0}
  - m_RefCount: 0
    m_Data: {fileID: 0}
  - m_RefCount: 0
    m_Data: {fileID: 0}
  - m_RefCount: 0
    m_Data: {fileID: 0}
  - m_RefCount: 0
    m_Data: {fileID: 0}
  - m_RefCount: 0
    m_Data: {fileID: 0}
  - m_RefCount: 0
    m_Data: {fileID: 0}
  - m_RefCount: 0
    m_Data: {fileID: 0}
  - m_RefCount: 0
    m_Data: {fileID: 0}
  - m_RefCount: 0
    m_Data: {fileID: 0}
  - m_RefCount: 0
    m_Data: {fileID: 0}
  - m_RefCount: 0
    m_Data: {fileID: 0}
  - m_RefCount: 0
    m_Data: {fileID: 0}
  - m_RefCount: 0
    m_Data: {fileID: 0}
  - m_RefCount: 0
    m_Data: {fileID: 0}
  - m_RefCount: 0
    m_Data: {fileID: 0}
  - m_RefCount: 0
    m_Data: {fileID: 0}
  - m_RefCount: 0
    m_Data: {fileID: 0}
  - m_RefCount: 0
    m_Data: {fileID: 0}
  - m_RefCount: 0
    m_Data: {fileID: 0}
  - m_RefCount: 0
    m_Data: {fileID: 0}
  - m_RefCount: 0
    m_Data: {fileID: 0}
  - m_RefCount: 0
    m_Data: {fileID: 0}
  - m_RefCount: 0
    m_Data: {fileID: 0}
  - m_RefCount: 0
    m_Data: {fileID: 0}
  - m_RefCount: 0
    m_Data: {fileID: 0}
  - m_RefCount: 0
    m_Data: {fileID: 0}
  - m_RefCount: 0
    m_Data: {fileID: 0}
  - m_RefCount: 0
    m_Data: {fileID: 0}
  - m_RefCount: 0
    m_Data: {fileID: 0}
  - m_RefCount: 0
    m_Data: {fileID: 0}
  - m_RefCount: 0
    m_Data: {fileID: 0}
  - m_RefCount: 0
    m_Data: {fileID: 0}
  - m_RefCount: 0
    m_Data: {fileID: 0}
  - m_RefCount: 0
    m_Data: {fileID: 0}
  - m_RefCount: 0
    m_Data: {fileID: 0}
  - m_RefCount: 0
    m_Data: {fileID: 0}
  - m_RefCount: 0
    m_Data: {fileID: 0}
  - m_RefCount: 0
    m_Data: {fileID: 0}
  - m_RefCount: 0
    m_Data: {fileID: 0}
  - m_RefCount: 0
    m_Data: {fileID: 0}
  - m_RefCount: 0
    m_Data: {fileID: 0}
  - m_RefCount: 0
    m_Data: {fileID: 0}
  - m_RefCount: 0
    m_Data: {fileID: 0}
  - m_RefCount: 0
    m_Data: {fileID: 0}
  - m_RefCount: 0
    m_Data: {fileID: 0}
  - m_RefCount: 0
    m_Data: {fileID: 0}
  - m_RefCount: 0
    m_Data: {fileID: 0}
  - m_RefCount: 0
    m_Data: {fileID: 0}
  - m_RefCount: 0
    m_Data: {fileID: 0}
  - m_RefCount: 0
    m_Data: {fileID: 0}
  - m_RefCount: 0
    m_Data: {fileID: 0}
  - m_RefCount: 0
    m_Data: {fileID: 0}
  - m_RefCount: 0
    m_Data: {fileID: 0}
  - m_RefCount: 0
    m_Data: {fileID: 0}
  - m_RefCount: 0
    m_Data: {fileID: 0}
  - m_RefCount: 0
    m_Data: {fileID: 0}
  - m_RefCount: 0
    m_Data: {fileID: 0}
  - m_RefCount: 0
    m_Data: {fileID: 0}
  - m_RefCount: 0
    m_Data: {fileID: 0}
  - m_RefCount: 0
    m_Data: {fileID: 0}
  - m_RefCount: 0
    m_Data: {fileID: 0}
  - m_RefCount: 0
    m_Data: {fileID: 0}
  - m_RefCount: 0
    m_Data: {fileID: 0}
  - m_RefCount: 0
    m_Data: {fileID: 0}
  - m_RefCount: 0
    m_Data: {fileID: 0}
  - m_RefCount: 0
    m_Data: {fileID: 0}
  - m_RefCount: 0
    m_Data: {fileID: 0}
  - m_RefCount: 0
    m_Data: {fileID: 0}
  - m_RefCount: 0
    m_Data: {fileID: 0}
  - m_RefCount: 0
    m_Data: {fileID: 0}
  - m_RefCount: 0
    m_Data: {fileID: 0}
  - m_RefCount: 0
    m_Data: {fileID: 0}
  - m_RefCount: 0
    m_Data: {fileID: 0}
  - m_RefCount: 0
    m_Data: {fileID: 0}
  - m_RefCount: 0
    m_Data: {fileID: 0}
  - m_RefCount: 0
    m_Data: {fileID: 0}
  - m_RefCount: 0
    m_Data: {fileID: 0}
  - m_RefCount: 0
    m_Data: {fileID: 0}
  - m_RefCount: 0
    m_Data: {fileID: 0}
  - m_RefCount: 0
    m_Data: {fileID: 0}
  - m_RefCount: 0
    m_Data: {fileID: 0}
  - m_RefCount: 0
    m_Data: {fileID: 0}
  - m_RefCount: 0
    m_Data: {fileID: 0}
  - m_RefCount: 0
    m_Data: {fileID: 0}
  - m_RefCount: 0
    m_Data: {fileID: 0}
  - m_RefCount: 0
    m_Data: {fileID: 0}
  - m_RefCount: 0
    m_Data: {fileID: 0}
  - m_RefCount: 0
    m_Data: {fileID: 0}
  - m_RefCount: 0
    m_Data: {fileID: 0}
  - m_RefCount: 0
    m_Data: {fileID: 0}
  - m_RefCount: 0
    m_Data: {fileID: 0}
  - m_RefCount: 0
    m_Data: {fileID: 0}
  - m_RefCount: 0
    m_Data: {fileID: 0}
  - m_RefCount: 0
    m_Data: {fileID: 0}
  - m_RefCount: 0
    m_Data: {fileID: 0}
  - m_RefCount: 0
    m_Data: {fileID: 0}
  - m_RefCount: 0
    m_Data: {fileID: 0}
  - m_RefCount: 0
    m_Data: {fileID: 0}
  - m_RefCount: 0
    m_Data: {fileID: 0}
  - m_RefCount: 0
    m_Data: {fileID: 0}
  - m_RefCount: 0
    m_Data: {fileID: 0}
  - m_RefCount: 0
    m_Data: {fileID: 0}
  - m_RefCount: 0
    m_Data: {fileID: 0}
  - m_RefCount: 0
    m_Data: {fileID: 0}
  - m_RefCount: 0
    m_Data: {fileID: 0}
  - m_RefCount: 0
    m_Data: {fileID: 0}
  - m_RefCount: 0
    m_Data: {fileID: 0}
  - m_RefCount: 0
    m_Data: {fileID: 0}
  - m_RefCount: 1
    m_Data: {fileID: -216371968, guid: d8ec794d355d281479e0fa726296b863, type: 3}
  - m_RefCount: 1
    m_Data: {fileID: -406136071, guid: d8ec794d355d281479e0fa726296b863, type: 3}
  - m_RefCount: 1
    m_Data: {fileID: -1285927381, guid: d8ec794d355d281479e0fa726296b863, type: 3}
  - m_RefCount: 1
    m_Data: {fileID: -2087947987, guid: d8ec794d355d281479e0fa726296b863, type: 3}
  - m_RefCount: 1
    m_Data: {fileID: -801260714, guid: d8ec794d355d281479e0fa726296b863, type: 3}
  - m_RefCount: 1
    m_Data: {fileID: 1641258190, guid: d8ec794d355d281479e0fa726296b863, type: 3}
  - m_RefCount: 1
    m_Data: {fileID: -1059890048, guid: d8ec794d355d281479e0fa726296b863, type: 3}
  - m_RefCount: 1
    m_Data: {fileID: 1476646139, guid: d8ec794d355d281479e0fa726296b863, type: 3}
  - m_RefCount: 1
    m_Data: {fileID: -257654768, guid: d8ec794d355d281479e0fa726296b863, type: 3}
  - m_RefCount: 1
    m_Data: {fileID: -599336980, guid: d8ec794d355d281479e0fa726296b863, type: 3}
  - m_RefCount: 1
    m_Data: {fileID: -651711408, guid: d8ec794d355d281479e0fa726296b863, type: 3}
  - m_RefCount: 1
    m_Data: {fileID: 1019259454, guid: d8ec794d355d281479e0fa726296b863, type: 3}
  - m_RefCount: 1
    m_Data: {fileID: -324753275, guid: d8ec794d355d281479e0fa726296b863, type: 3}
  - m_RefCount: 1
    m_Data: {fileID: -1308220351, guid: d8ec794d355d281479e0fa726296b863, type: 3}
  - m_RefCount: 1
    m_Data: {fileID: 1609129450, guid: d8ec794d355d281479e0fa726296b863, type: 3}
  - m_RefCount: 1
    m_Data: {fileID: -1007990430, guid: d8ec794d355d281479e0fa726296b863, type: 3}
  - m_RefCount: 1
    m_Data: {fileID: 1451490806, guid: d8ec794d355d281479e0fa726296b863, type: 3}
  - m_RefCount: 1
    m_Data: {fileID: -1732653906, guid: d8ec794d355d281479e0fa726296b863, type: 3}
  - m_RefCount: 1
    m_Data: {fileID: -1515537791, guid: d8ec794d355d281479e0fa726296b863, type: 3}
  - m_RefCount: 1
    m_Data: {fileID: -1251276749, guid: d8ec794d355d281479e0fa726296b863, type: 3}
  - m_RefCount: 1
    m_Data: {fileID: -149037338, guid: d8ec794d355d281479e0fa726296b863, type: 3}
  - m_RefCount: 1
    m_Data: {fileID: 362137647, guid: d8ec794d355d281479e0fa726296b863, type: 3}
  - m_RefCount: 1
    m_Data: {fileID: -704602653, guid: d8ec794d355d281479e0fa726296b863, type: 3}
  - m_RefCount: 1
    m_Data: {fileID: -1641210493, guid: d8ec794d355d281479e0fa726296b863, type: 3}
  - m_RefCount: 1
    m_Data: {fileID: 1013151099, guid: d8ec794d355d281479e0fa726296b863, type: 3}
  - m_RefCount: 1
    m_Data: {fileID: 543828871, guid: d8ec794d355d281479e0fa726296b863, type: 3}
  - m_RefCount: 1
    m_Data: {fileID: 639703602, guid: d8ec794d355d281479e0fa726296b863, type: 3}
  - m_RefCount: 1
    m_Data: {fileID: 852159421, guid: d8ec794d355d281479e0fa726296b863, type: 3}
  - m_RefCount: 1
    m_Data: {fileID: -494135347, guid: d8ec794d355d281479e0fa726296b863, type: 3}
  - m_RefCount: 1
    m_Data: {fileID: 132320036, guid: d8ec794d355d281479e0fa726296b863, type: 3}
  - m_RefCount: 1
    m_Data: {fileID: -1919363147, guid: d8ec794d355d281479e0fa726296b863, type: 3}
  - m_RefCount: 1
    m_Data: {fileID: -1206365316, guid: d8ec794d355d281479e0fa726296b863, type: 3}
  - m_RefCount: 1
    m_Data: {fileID: -1493488228, guid: d8ec794d355d281479e0fa726296b863, type: 3}
  - m_RefCount: 1
    m_Data: {fileID: 1822887173, guid: d8ec794d355d281479e0fa726296b863, type: 3}
  - m_RefCount: 1
    m_Data: {fileID: 1397214186, guid: d8ec794d355d281479e0fa726296b863, type: 3}
  - m_RefCount: 1
    m_Data: {fileID: 1633205296, guid: d8ec794d355d281479e0fa726296b863, type: 3}
  - m_RefCount: 1
    m_Data: {fileID: 1216809235, guid: d8ec794d355d281479e0fa726296b863, type: 3}
  - m_RefCount: 1
    m_Data: {fileID: 629798785, guid: d8ec794d355d281479e0fa726296b863, type: 3}
  - m_RefCount: 1
    m_Data: {fileID: 1339512011, guid: d8ec794d355d281479e0fa726296b863, type: 3}
  - m_RefCount: 1
    m_Data: {fileID: 1385041255, guid: d8ec794d355d281479e0fa726296b863, type: 3}
  - m_RefCount: 1
    m_Data: {fileID: -836338587, guid: d8ec794d355d281479e0fa726296b863, type: 3}
  - m_RefCount: 1
    m_Data: {fileID: 1618268415, guid: d8ec794d355d281479e0fa726296b863, type: 3}
  - m_RefCount: 1
    m_Data: {fileID: 1599857942, guid: d8ec794d355d281479e0fa726296b863, type: 3}
  - m_RefCount: 1
    m_Data: {fileID: 425699300, guid: d8ec794d355d281479e0fa726296b863, type: 3}
  - m_RefCount: 1
    m_Data: {fileID: -1854229389, guid: d8ec794d355d281479e0fa726296b863, type: 3}
  - m_RefCount: 1
    m_Data: {fileID: -860934826, guid: d8ec794d355d281479e0fa726296b863, type: 3}
  - m_RefCount: 1
    m_Data: {fileID: -2138517051, guid: d8ec794d355d281479e0fa726296b863, type: 3}
  - m_RefCount: 1
    m_Data: {fileID: -588789387, guid: d8ec794d355d281479e0fa726296b863, type: 3}
  - m_RefCount: 1
    m_Data: {fileID: 1602496784, guid: d8ec794d355d281479e0fa726296b863, type: 3}
  - m_RefCount: 1
    m_Data: {fileID: -1625972751, guid: d8ec794d355d281479e0fa726296b863, type: 3}
  - m_RefCount: 1
    m_Data: {fileID: 1886985062, guid: d8ec794d355d281479e0fa726296b863, type: 3}
  - m_RefCount: 1
    m_Data: {fileID: -579369849, guid: d8ec794d355d281479e0fa726296b863, type: 3}
  - m_RefCount: 1
    m_Data: {fileID: 81038963, guid: d8ec794d355d281479e0fa726296b863, type: 3}
  - m_RefCount: 1
    m_Data: {fileID: 1834207379, guid: d8ec794d355d281479e0fa726296b863, type: 3}
  - m_RefCount: 1
    m_Data: {fileID: -1570749586, guid: d8ec794d355d281479e0fa726296b863, type: 3}
  - m_RefCount: 1
    m_Data: {fileID: 1488413998, guid: d8ec794d355d281479e0fa726296b863, type: 3}
  - m_RefCount: 1
    m_Data: {fileID: -112381314, guid: d8ec794d355d281479e0fa726296b863, type: 3}
  - m_RefCount: 1
    m_Data: {fileID: -1599688370, guid: d8ec794d355d281479e0fa726296b863, type: 3}
  - m_RefCount: 1
    m_Data: {fileID: -501594268, guid: d8ec794d355d281479e0fa726296b863, type: 3}
  - m_RefCount: 1
    m_Data: {fileID: -1917868816, guid: d8ec794d355d281479e0fa726296b863, type: 3}
  - m_RefCount: 1
    m_Data: {fileID: 1737279721, guid: d8ec794d355d281479e0fa726296b863, type: 3}
  - m_RefCount: 1
    m_Data: {fileID: 521117960, guid: d8ec794d355d281479e0fa726296b863, type: 3}
  - m_RefCount: 1
    m_Data: {fileID: 1324411840, guid: d8ec794d355d281479e0fa726296b863, type: 3}
  - m_RefCount: 1
    m_Data: {fileID: 1858373346, guid: d8ec794d355d281479e0fa726296b863, type: 3}
  - m_RefCount: 1
    m_Data: {fileID: -419977086, guid: d8ec794d355d281479e0fa726296b863, type: 3}
  - m_RefCount: 1
    m_Data: {fileID: -4640301, guid: d8ec794d355d281479e0fa726296b863, type: 3}
  - m_RefCount: 1
    m_Data: {fileID: -330729781, guid: d8ec794d355d281479e0fa726296b863, type: 3}
  - m_RefCount: 1
    m_Data: {fileID: 2050712692, guid: d8ec794d355d281479e0fa726296b863, type: 3}
  - m_RefCount: 0
    m_Data: {fileID: 0}
  - m_RefCount: 0
    m_Data: {fileID: 0}
  - m_RefCount: 0
    m_Data: {fileID: 0}
  - m_RefCount: 0
    m_Data: {fileID: 0}
  - m_RefCount: 0
    m_Data: {fileID: 0}
  - m_RefCount: 1
    m_Data: {fileID: 211746099, guid: d8ec794d355d281479e0fa726296b863, type: 3}
  - m_RefCount: 1
    m_Data: {fileID: -1706734807, guid: d8ec794d355d281479e0fa726296b863, type: 3}
  - m_RefCount: 1
    m_Data: {fileID: 554746144, guid: d8ec794d355d281479e0fa726296b863, type: 3}
  - m_RefCount: 1
    m_Data: {fileID: 344642307, guid: d8ec794d355d281479e0fa726296b863, type: 3}
  - m_RefCount: 1
    m_Data: {fileID: 896048395, guid: d8ec794d355d281479e0fa726296b863, type: 3}
  - m_RefCount: 1
    m_Data: {fileID: 768999934, guid: d8ec794d355d281479e0fa726296b863, type: 3}
  - m_RefCount: 1
    m_Data: {fileID: 1438837845, guid: d8ec794d355d281479e0fa726296b863, type: 3}
  - m_RefCount: 1
    m_Data: {fileID: 1266098405, guid: d8ec794d355d281479e0fa726296b863, type: 3}
  - m_RefCount: 1
    m_Data: {fileID: -224320267, guid: d8ec794d355d281479e0fa726296b863, type: 3}
  - m_RefCount: 1
    m_Data: {fileID: -2125933356, guid: d8ec794d355d281479e0fa726296b863, type: 3}
  - m_RefCount: 1
    m_Data: {fileID: -1569577834, guid: d8ec794d355d281479e0fa726296b863, type: 3}
  - m_RefCount: 1
    m_Data: {fileID: -882758434, guid: d8ec794d355d281479e0fa726296b863, type: 3}
  - m_RefCount: 1
    m_Data: {fileID: -1662146904, guid: d8ec794d355d281479e0fa726296b863, type: 3}
  - m_RefCount: 1
    m_Data: {fileID: -469369372, guid: d8ec794d355d281479e0fa726296b863, type: 3}
  - m_RefCount: 1
    m_Data: {fileID: -1118739822, guid: e998b00e4a67c5e4b9426d1a0fa56d45, type: 3}
  - m_RefCount: 1
    m_Data: {fileID: -1855596386, guid: e998b00e4a67c5e4b9426d1a0fa56d45, type: 3}
  - m_RefCount: 1
    m_Data: {fileID: -1410481142, guid: e998b00e4a67c5e4b9426d1a0fa56d45, type: 3}
  - m_RefCount: 1
    m_Data: {fileID: -905543550, guid: e998b00e4a67c5e4b9426d1a0fa56d45, type: 3}
  - m_RefCount: 1
    m_Data: {fileID: -1730870936, guid: e998b00e4a67c5e4b9426d1a0fa56d45, type: 3}
  - m_RefCount: 1
    m_Data: {fileID: 1202583309, guid: e998b00e4a67c5e4b9426d1a0fa56d45, type: 3}
  - m_RefCount: 1
    m_Data: {fileID: -1024690224, guid: e998b00e4a67c5e4b9426d1a0fa56d45, type: 3}
  - m_RefCount: 1
    m_Data: {fileID: 998106014, guid: e998b00e4a67c5e4b9426d1a0fa56d45, type: 3}
  - m_RefCount: 1
    m_Data: {fileID: -410528496, guid: e998b00e4a67c5e4b9426d1a0fa56d45, type: 3}
  - m_RefCount: 1
    m_Data: {fileID: 1448878222, guid: e998b00e4a67c5e4b9426d1a0fa56d45, type: 3}
  - m_RefCount: 1
    m_Data: {fileID: 921339534, guid: e998b00e4a67c5e4b9426d1a0fa56d45, type: 3}
  - m_RefCount: 1
    m_Data: {fileID: -665680101, guid: e998b00e4a67c5e4b9426d1a0fa56d45, type: 3}
  - m_RefCount: 1
    m_Data: {fileID: 868172682, guid: e998b00e4a67c5e4b9426d1a0fa56d45, type: 3}
  - m_RefCount: 1
    m_Data: {fileID: -1488500244, guid: e998b00e4a67c5e4b9426d1a0fa56d45, type: 3}
  - m_RefCount: 1
    m_Data: {fileID: -62662532, guid: e998b00e4a67c5e4b9426d1a0fa56d45, type: 3}
  - m_RefCount: 1
    m_Data: {fileID: 1155157946, guid: e998b00e4a67c5e4b9426d1a0fa56d45, type: 3}
  - m_RefCount: 1
    m_Data: {fileID: -452421305, guid: e998b00e4a67c5e4b9426d1a0fa56d45, type: 3}
  - m_RefCount: 1
    m_Data: {fileID: 1623653047, guid: e998b00e4a67c5e4b9426d1a0fa56d45, type: 3}
  - m_RefCount: 1
    m_Data: {fileID: 718276849, guid: e998b00e4a67c5e4b9426d1a0fa56d45, type: 3}
  - m_RefCount: 1
    m_Data: {fileID: -470150788, guid: d8ec794d355d281479e0fa726296b863, type: 3}
  - m_RefCount: 1
    m_Data: {fileID: 1315634059, guid: d8ec794d355d281479e0fa726296b863, type: 3}
  - m_RefCount: 1
    m_Data: {fileID: -394575670, guid: e998b00e4a67c5e4b9426d1a0fa56d45, type: 3}
  - m_RefCount: 1
    m_Data: {fileID: -964786690, guid: e998b00e4a67c5e4b9426d1a0fa56d45, type: 3}
  - m_RefCount: 1
    m_Data: {fileID: 952736348, guid: e998b00e4a67c5e4b9426d1a0fa56d45, type: 3}
  - m_RefCount: 1
    m_Data: {fileID: 620172380, guid: e998b00e4a67c5e4b9426d1a0fa56d45, type: 3}
  - m_RefCount: 1
    m_Data: {fileID: -269033240, guid: e998b00e4a67c5e4b9426d1a0fa56d45, type: 3}
  - m_RefCount: 1
    m_Data: {fileID: 721925954, guid: e998b00e4a67c5e4b9426d1a0fa56d45, type: 3}
  - m_RefCount: 1
    m_Data: {fileID: -220406878, guid: e998b00e4a67c5e4b9426d1a0fa56d45, type: 3}
  - m_RefCount: 1
    m_Data: {fileID: -1262203440, guid: e998b00e4a67c5e4b9426d1a0fa56d45, type: 3}
  - m_RefCount: 1
    m_Data: {fileID: -1008642748, guid: d8ec794d355d281479e0fa726296b863, type: 3}
  - m_RefCount: 1
    m_Data: {fileID: -550611615, guid: e998b00e4a67c5e4b9426d1a0fa56d45, type: 3}
  - m_RefCount: 1
    m_Data: {fileID: 1951855748, guid: e998b00e4a67c5e4b9426d1a0fa56d45, type: 3}
  - m_RefCount: 1
    m_Data: {fileID: -565979451, guid: e998b00e4a67c5e4b9426d1a0fa56d45, type: 3}
  - m_RefCount: 1
    m_Data: {fileID: 618902336, guid: e998b00e4a67c5e4b9426d1a0fa56d45, type: 3}
  - m_RefCount: 1
    m_Data: {fileID: -767663619, guid: e998b00e4a67c5e4b9426d1a0fa56d45, type: 3}
  - m_RefCount: 1
    m_Data: {fileID: -1540607442, guid: e998b00e4a67c5e4b9426d1a0fa56d45, type: 3}
  - m_RefCount: 1
    m_Data: {fileID: -1984111813, guid: e998b00e4a67c5e4b9426d1a0fa56d45, type: 3}
  - m_RefCount: 1
    m_Data: {fileID: 843884013, guid: e998b00e4a67c5e4b9426d1a0fa56d45, type: 3}
  - m_RefCount: 1
    m_Data: {fileID: 526554954, guid: e998b00e4a67c5e4b9426d1a0fa56d45, type: 3}
  - m_RefCount: 1
    m_Data: {fileID: 1972520733, guid: e998b00e4a67c5e4b9426d1a0fa56d45, type: 3}
  - m_RefCount: 1
    m_Data: {fileID: 593060501, guid: e998b00e4a67c5e4b9426d1a0fa56d45, type: 3}
  - m_RefCount: 1
    m_Data: {fileID: -119752021, guid: e998b00e4a67c5e4b9426d1a0fa56d45, type: 3}
  - m_RefCount: 1
    m_Data: {fileID: 1242447554, guid: e998b00e4a67c5e4b9426d1a0fa56d45, type: 3}
  - m_RefCount: 1
    m_Data: {fileID: 1033649725, guid: e998b00e4a67c5e4b9426d1a0fa56d45, type: 3}
  - m_RefCount: 1
    m_Data: {fileID: -1185342479, guid: e998b00e4a67c5e4b9426d1a0fa56d45, type: 3}
  - m_RefCount: 1
    m_Data: {fileID: 1048747835, guid: e998b00e4a67c5e4b9426d1a0fa56d45, type: 3}
  - m_RefCount: 1
    m_Data: {fileID: -882890061, guid: d8ec794d355d281479e0fa726296b863, type: 3}
  - m_RefCount: 1
    m_Data: {fileID: -1361374363, guid: d8ec794d355d281479e0fa726296b863, type: 3}
  - m_RefCount: 1
    m_Data: {fileID: 325234785, guid: d8ec794d355d281479e0fa726296b863, type: 3}
  - m_RefCount: 1
    m_Data: {fileID: -542087582, guid: d8ec794d355d281479e0fa726296b863, type: 3}
  - m_RefCount: 1
    m_Data: {fileID: 313609093, guid: e998b00e4a67c5e4b9426d1a0fa56d45, type: 3}
  - m_RefCount: 1
    m_Data: {fileID: -892751791, guid: e998b00e4a67c5e4b9426d1a0fa56d45, type: 3}
  - m_RefCount: 1
    m_Data: {fileID: -463200404, guid: e998b00e4a67c5e4b9426d1a0fa56d45, type: 3}
  - m_RefCount: 1
    m_Data: {fileID: 669876286, guid: e998b00e4a67c5e4b9426d1a0fa56d45, type: 3}
  - m_RefCount: 1
    m_Data: {fileID: -1560139926, guid: e998b00e4a67c5e4b9426d1a0fa56d45, type: 3}
  - m_RefCount: 1
    m_Data: {fileID: -164078089, guid: d8ec794d355d281479e0fa726296b863, type: 3}
  - m_RefCount: 1
    m_Data: {fileID: 2070632790, guid: d8ec794d355d281479e0fa726296b863, type: 3}
  - m_RefCount: 1
    m_Data: {fileID: -1233743540, guid: d8ec794d355d281479e0fa726296b863, type: 3}
  - m_RefCount: 1
    m_Data: {fileID: 1283564164, guid: d8ec794d355d281479e0fa726296b863, type: 3}
  - m_RefCount: 0
    m_Data: {fileID: 0}
  - m_RefCount: 1
    m_Data: {fileID: 676445077, guid: d8ec794d355d281479e0fa726296b863, type: 3}
  - m_RefCount: 1
    m_Data: {fileID: -796586114, guid: d8ec794d355d281479e0fa726296b863, type: 3}
  - m_RefCount: 1
    m_Data: {fileID: -1384274220, guid: d8ec794d355d281479e0fa726296b863, type: 3}
  - m_RefCount: 1
    m_Data: {fileID: -548388134, guid: d8ec794d355d281479e0fa726296b863, type: 3}
  - m_RefCount: 1
    m_Data: {fileID: 816411234, guid: d8ec794d355d281479e0fa726296b863, type: 3}
  - m_RefCount: 1
    m_Data: {fileID: -1229633489, guid: e998b00e4a67c5e4b9426d1a0fa56d45, type: 3}
  - m_RefCount: 1
    m_Data: {fileID: -673056374, guid: e998b00e4a67c5e4b9426d1a0fa56d45, type: 3}
  - m_RefCount: 1
    m_Data: {fileID: 930038802, guid: e998b00e4a67c5e4b9426d1a0fa56d45, type: 3}
  - m_RefCount: 1
    m_Data: {fileID: 833494174, guid: e998b00e4a67c5e4b9426d1a0fa56d45, type: 3}
  m_TileMatrixArray:
  - m_RefCount: 150
    m_Data:
      e00: 1
      e01: 0
      e02: 0
      e03: 0
      e10: 0
      e11: 1
      e12: 0
      e13: 0
      e20: 0
      e21: 0
      e22: 1
      e23: 0
      e30: 0
      e31: 0
      e32: 0
      e33: 1
  m_TileColorArray:
  - m_RefCount: 150
    m_Data: {r: 1, g: 1, b: 1, a: 1}
  m_TileObjectToInstantiateArray: []
  m_AnimationFrameRate: 1
  m_Color: {r: 1, g: 1, b: 1, a: 1}
  m_Origin: {x: -8, y: -20, z: 0}
  m_Size: {x: 24, y: 29, z: 1}
  m_TileAnchor: {x: 0.5, y: 0.5, z: 0}
  m_TileOrientation: 0
  m_TileOrientationMatrix:
    e00: 1
    e01: 0
    e02: 0
    e03: 0
    e10: 0
    e11: 1
    e12: 0
    e13: 0
    e20: 0
    e21: 0
    e22: 1
    e23: 0
    e30: 0
    e31: 0
    e32: 0
    e33: 1
--- !u!483693784 &9052452979780188304
TilemapRenderer:
  m_ObjectHideFlags: 0
  m_CorrespondingSourceObject: {fileID: 0}
  m_PrefabInstance: {fileID: 0}
  m_PrefabAsset: {fileID: 0}
  m_GameObject: {fileID: 823069265059775055}
  m_Enabled: 1
  m_CastShadows: 0
  m_ReceiveShadows: 0
  m_DynamicOccludee: 0
  m_StaticShadowCaster: 0
  m_MotionVectors: 1
  m_LightProbeUsage: 0
  m_ReflectionProbeUsage: 0
  m_RayTracingMode: 0
  m_RayTraceProcedural: 0
  m_RenderingLayerMask: 1
  m_RendererPriority: 0
  m_Materials:
  - {fileID: 10754, guid: 0000000000000000f000000000000000, type: 0}
  m_StaticBatchInfo:
    firstSubMesh: 0
    subMeshCount: 0
  m_StaticBatchRoot: {fileID: 0}
  m_ProbeAnchor: {fileID: 0}
  m_LightProbeVolumeOverride: {fileID: 0}
  m_ScaleInLightmap: 1
  m_ReceiveGI: 1
  m_PreserveUVs: 0
  m_IgnoreNormalsForChartDetection: 0
  m_ImportantGI: 0
  m_StitchLightmapSeams: 1
  m_SelectedEditorRenderState: 0
  m_MinimumChartSize: 4
  m_AutoUVMaxDistance: 0.5
  m_AutoUVMaxAngle: 89
  m_LightmapParameters: {fileID: 0}
  m_SortingLayerID: 0
  m_SortingLayer: 0
  m_SortingOrder: 0
  m_ChunkSize: {x: 32, y: 32, z: 32}
  m_ChunkCullingBounds: {x: 0, y: 0, z: 0}
  m_MaxChunkCount: 16
  m_MaxFrameAge: 16
  m_SortOrder: 0
  m_Mode: 0
  m_DetectChunkCullingBounds: 0
  m_MaskInteraction: 0
--- !u!1 &6774433693354381238
GameObject:
  m_ObjectHideFlags: 0
  m_CorrespondingSourceObject: {fileID: 0}
  m_PrefabInstance: {fileID: 0}
  m_PrefabAsset: {fileID: 0}
  serializedVersion: 6
  m_Component:
  - component: {fileID: 6666972213064477306}
  - component: {fileID: 6135786035522890510}
  m_Layer: 0
  m_Name: Ground Tiles 3
  m_TagString: Untagged
  m_Icon: {fileID: 0}
  m_NavMeshLayer: 0
  m_StaticEditorFlags: 0
  m_IsActive: 1
--- !u!4 &6666972213064477306
Transform:
  m_ObjectHideFlags: 0
  m_CorrespondingSourceObject: {fileID: 0}
  m_PrefabInstance: {fileID: 0}
  m_PrefabAsset: {fileID: 0}
  m_GameObject: {fileID: 6774433693354381238}
  m_LocalRotation: {x: 0, y: 0, z: 0, w: 1}
  m_LocalPosition: {x: 0, y: 0, z: 0}
  m_LocalScale: {x: 1, y: 1, z: 1}
  m_ConstrainProportionsScale: 0
  m_Children:
  - {fileID: 2427179793122189449}
  m_Father: {fileID: 0}
  m_RootOrder: 0
  m_LocalEulerAnglesHint: {x: 0, y: 0, z: 0}
--- !u!156049354 &6135786035522890510
Grid:
  m_ObjectHideFlags: 0
  m_CorrespondingSourceObject: {fileID: 0}
  m_PrefabInstance: {fileID: 0}
  m_PrefabAsset: {fileID: 0}
  m_GameObject: {fileID: 6774433693354381238}
  m_Enabled: 1
  m_CellSize: {x: 1, y: 1, z: 0}
  m_CellGap: {x: 0, y: 0, z: 0}
  m_CellLayout: 0
  m_CellSwizzle: 0
--- !u!114 &181822621327690852
MonoBehaviour:
  m_ObjectHideFlags: 0
  m_CorrespondingSourceObject: {fileID: 0}
  m_PrefabInstance: {fileID: 0}
  m_PrefabAsset: {fileID: 0}
  m_GameObject: {fileID: 0}
  m_Enabled: 1
  m_EditorHideFlags: 0
  m_Script: {fileID: 12395, guid: 0000000000000000e000000000000000, type: 0}
  m_Name: Palette Settings
  m_EditorClassIdentifier: 
  cellSizing: 0
  m_TransparencySortMode: 0
  m_TransparencySortAxis: {x: 0, y: 0, z: 1}
