%YAML 1.1
%TAG !u! tag:unity3d.com,2011:
--- !u!74 &7400000
AnimationClip:
  m_ObjectHideFlags: 0
  m_CorrespondingSourceObject: {fileID: 0}
  m_PrefabInstance: {fileID: 0}
  m_PrefabAsset: {fileID: 0}
  m_Name: Melee3_animation
  serializedVersion: 6
  m_Legacy: 0
  m_Compressed: 0
  m_UseHighQualityCurve: 1
  m_RotationCurves: []
  m_CompressedRotationCurves: []
  m_EulerCurves: []
  m_PositionCurves: []
  m_ScaleCurves: []
  m_FloatCurves: []
  m_PPtrCurves:
  - curve:
    - time: 0
      value: {fileID: 21300000, guid: fe277607276abf44ea1bdaafd909c1fb, type: 3}
    - time: 0.020833334
      value: {fileID: 21300000, guid: 58f8c9e136a07e24ebfcbed86cdbf082, type: 3}
    - time: 0.041666668
      value: {fileID: 21300000, guid: fe277607276abf44ea1bdaafd909c1fb, type: 3}
    - time: 0.0625
      value: {fileID: 21300000, guid: 3c1aa3d545f1a2843ab0de239d6a15dc, type: 3}
    - time: 0.083333336
      value: {fileID: 21300000, guid: fe277607276abf44ea1bdaafd909c1fb, type: 3}
    - time: 0.104166664
      value: {fileID: 21300000, guid: fbcdf9cf957f7624e839d04e86084c28, type: 3}
    - time: 0.125
      value: {fileID: 21300000, guid: 917f9fe7534e11e4e87f0618db8827f5, type: 3}
    - time: 0.14583333
      value: {fileID: 21300000, guid: 9250d826b93fbee448013be5561d9210, type: 3}
    - time: 0.16666667
      value: {fileID: 21300000, guid: b383aecfe73e03b4398692bd67a21bc1, type: 3}
    - time: 0.1875
      value: {fileID: 21300000, guid: 7ec500ed799f75a49ad15dce930b33f9, type: 3}
    - time: 0.20833333
      value: {fileID: 21300000, guid: 53d99aa34435237489fcd53b2d9e5ead, type: 3}
    - time: 0.22916667
      value: {fileID: 21300000, guid: fe277607276abf44ea1bdaafd909c1fb, type: 3}
    - time: 0.25
      value: {fileID: 21300000, guid: e5794e6d75755f54e8d57ec9348fae35, type: 3}
    attribute: m_Sprite
    path: 
    classID: 212
    script: {fileID: 0}
  m_SampleRate: 48
  m_WrapMode: 0
  m_Bounds:
    m_Center: {x: 0, y: 0, z: 0}
    m_Extent: {x: 0, y: 0, z: 0}
  m_ClipBindingConstant:
    genericBindings:
    - serializedVersion: 2
      path: 0
      attribute: 0
      script: {fileID: 0}
      typeID: 212
      customType: 23
      isPPtrCurve: 1
    pptrCurveMapping:
    - {fileID: 21300000, guid: fe277607276abf44ea1bdaafd909c1fb, type: 3}
    - {fileID: 21300000, guid: 58f8c9e136a07e24ebfcbed86cdbf082, type: 3}
    - {fileID: 21300000, guid: fe277607276abf44ea1bdaafd909c1fb, type: 3}
    - {fileID: 21300000, guid: 3c1aa3d545f1a2843ab0de239d6a15dc, type: 3}
    - {fileID: 21300000, guid: fe277607276abf44ea1bdaafd909c1fb, type: 3}
    - {fileID: 21300000, guid: fbcdf9cf957f7624e839d04e86084c28, type: 3}
    - {fileID: 21300000, guid: 917f9fe7534e11e4e87f0618db8827f5, type: 3}
    - {fileID: 21300000, guid: 9250d826b93fbee448013be5561d9210, type: 3}
    - {fileID: 21300000, guid: b383aecfe73e03b4398692bd67a21bc1, type: 3}
    - {fileID: 21300000, guid: 7ec500ed799f75a49ad15dce930b33f9, type: 3}
    - {fileID: 21300000, guid: 53d99aa34435237489fcd53b2d9e5ead, type: 3}
    - {fileID: 21300000, guid: fe277607276abf44ea1bdaafd909c1fb, type: 3}
    - {fileID: 21300000, guid: e5794e6d75755f54e8d57ec9348fae35, type: 3}
  m_AnimationClipSettings:
    serializedVersion: 2
    m_AdditiveReferencePoseClip: {fileID: 0}
    m_AdditiveReferencePoseTime: 0
    m_StartTime: 0
    m_StopTime: 0.27083334
    m_OrientationOffsetY: 0
    m_Level: 0
    m_CycleOffset: 0
    m_HasAdditiveReferencePose: 0
    m_LoopTime: 0
    m_LoopBlend: 0
    m_LoopBlendOrientation: 0
    m_LoopBlendPositionY: 0
    m_LoopBlendPositionXZ: 0
    m_KeepOriginalOrientation: 0
    m_KeepOriginalPositionY: 1
    m_KeepOriginalPositionXZ: 0
    m_HeightFromFeet: 0
    m_Mirror: 0
  m_EditorCurves: []
  m_EulerEditorCurves: []
  m_HasGenericRootTransform: 0
  m_HasMotionFloatCurves: 0
  m_Events:
  - time: 0.27083334
    functionName: Remove
    data: 
    objectReferenceParameter: {fileID: 1022944474254674809, guid: b8da67ece18ac0742b7cfa5bff89a81c, type: 3}
    floatParameter: 0
    intParameter: 0
    messageOptions: 0
