%YAML 1.1
%TAG !u! tag:unity3d.com,2011:
--- !u!74 &7400000
AnimationClip:
  m_ObjectHideFlags: 0
  m_CorrespondingSourceObject: {fileID: 0}
  m_PrefabInstance: {fileID: 0}
  m_PrefabAsset: {fileID: 0}
  m_Name: Ranged1ExplosionAnimation
  serializedVersion: 6
  m_Legacy: 0
  m_Compressed: 0
  m_UseHighQualityCurve: 1
  m_RotationCurves: []
  m_CompressedRotationCurves: []
  m_EulerCurves: []
  m_PositionCurves: []
  m_ScaleCurves: []
  m_FloatCurves: []
  m_PPtrCurves:
  - curve:
    - time: 0
      value: {fileID: 21300000, guid: 87b811ad2419ea147872f2f309a8f3a5, type: 3}
    - time: 0.083333336
      value: {fileID: 21300000, guid: 9111d9ce9ffe5f24095751d28ee190fb, type: 3}
    - time: 0.16666667
      value: {fileID: 21300000, guid: d44ab2beb715ad54bb29876c12add617, type: 3}
    - time: 0.25
      value: {fileID: 21300000, guid: 99399d9cd326c9045be829cc306a96e7, type: 3}
    - time: 0.33333334
      value: {fileID: 21300000, guid: 6701e2405cc94134a84086b95729348e, type: 3}
    attribute: m_Sprite
    path: 
    classID: 212
    script: {fileID: 0}
  m_SampleRate: 12
  m_WrapMode: 0
  m_Bounds:
    m_Center: {x: 0, y: 0, z: 0}
    m_Extent: {x: 0, y: 0, z: 0}
  m_ClipBindingConstant:
    genericBindings:
    - serializedVersion: 2
      path: 0
      attribute: 0
      script: {fileID: 0}
      typeID: 212
      customType: 23
      isPPtrCurve: 1
    pptrCurveMapping:
    - {fileID: 21300000, guid: 87b811ad2419ea147872f2f309a8f3a5, type: 3}
    - {fileID: 21300000, guid: 9111d9ce9ffe5f24095751d28ee190fb, type: 3}
    - {fileID: 21300000, guid: d44ab2beb715ad54bb29876c12add617, type: 3}
    - {fileID: 21300000, guid: 99399d9cd326c9045be829cc306a96e7, type: 3}
    - {fileID: 21300000, guid: 6701e2405cc94134a84086b95729348e, type: 3}
  m_AnimationClipSettings:
    serializedVersion: 2
    m_AdditiveReferencePoseClip: {fileID: 0}
    m_AdditiveReferencePoseTime: 0
    m_StartTime: 0
    m_StopTime: 0.4166667
    m_OrientationOffsetY: 0
    m_Level: 0
    m_CycleOffset: 0
    m_HasAdditiveReferencePose: 0
    m_LoopTime: 0
    m_LoopBlend: 0
    m_LoopBlendOrientation: 0
    m_LoopBlendPositionY: 0
    m_LoopBlendPositionXZ: 0
    m_KeepOriginalOrientation: 0
    m_KeepOriginalPositionY: 1
    m_KeepOriginalPositionXZ: 0
    m_HeightFromFeet: 0
    m_Mirror: 0
  m_EditorCurves: []
  m_EulerEditorCurves: []
  m_HasGenericRootTransform: 0
  m_HasMotionFloatCurves: 0
  m_Events:
  - time: 0.41666666
    functionName: EndAnimationDonePlaying
    data: 
    objectReferenceParameter: {fileID: 11500000, guid: 3fc33872e265e0f49b4fe2e60d20afe9, type: 3}
    floatParameter: 0
    intParameter: 0
    messageOptions: 0
